"VertexlitGeneric"
{
	"$basetexture" "models/props_sawdust/pallet_jack_1"
	"$bumpmap" "models/props_sawdust/pallet_jack_normal"



	"$phong" "1"
	"$phongexponent" "25"
	"$phongboost" "1"	
	"$lightwarptexture" "models/props_vehicles/pickup_lightwarp"
	"$phongfresnelranges"	"[1 1.5 1]"
}
