"WorldVertexTransition"
{
	"$basetexture" "brick/brickwall002"
	"$basetexture2" "brick/brickwall_watergate_bluover"
	"$blendmodulatetexture" "brick/blendbrick_test"
//	"%tooltexture" "brick/brickwall001c"
//	"$bumpmap" "Brick/brickwall_watergate_normal"
//	"$normalmapalphaenvmapmask" 1
//	"$envma" "env_cubemap"
	"%keywords" "tf"
//	"$bumpmap" "2"
}
