"VertexLitGeneric"
{
	"$basetexture"	"models\weapons\v_tranq\v_tranq"
	"$bumpmap"	"models\weapons\v_tranq\v_tranq_normal"
		
	"$phong" "1"
	"$phongexponent" "20"
	"$phongboost" "1"
	"$lightwarptexture" "models\lightwarps\weapon_lightwarp"
	"$phongfresnelranges"	"[1.5 .5 3]"
	"$halflambert" "1"

	
	"$rimlight" "1"						
	"$rimlightexponent" "20"				
	"$rimlightboost" ".25"

	"360?$color2" "[ 0.5 0.5 0.5 ]"
	
	"$glowcolor" "1"
	
	"$cloakPassEnabled" "1"
	
	"Proxies"
	{
		"weapon_invis"
		{
		}
		"ModelGlowColor"
		{
			"resultVar""$glowcolor"
		}
		"Equals"
		{
			"srcVar1"	"$glowcolor"
			"resultVar"	"$selfillumtint"
		}
		"Equals"
		{
			"srcVar1"	"$glowcolor"
			"resultVar"	"$color2"
		}
		"spy_invis"
		{
		}
	}
}