"VertexlitGeneric"
{
	"$baseTexture" "models\props_moonbase/moon_interior_computer02_grn"
	$bumpmap "effects/flat_normal"
	"$phong" "1"
	"$phongexponent" "60"
	"$phongboost" "1"
	//"$lightwarptexture" "models/lightwarps/weapon_lightwarp"
	"$phongfresnelranges"	"[.5 .5 3]"
	"$halflambert" "1"
	$phongtint "[ 1.0 0.9 0.75 ]"

	// Rim lighting parameters
	"$rimlight" "1"			
	"$rimlightexponent" "100"	
	"$rimlightboost" "7"
}
