// Choreo version 1
actor "Mercenary"
{
  channel "audio"
  {
    event speak "Mercenary.CloakedSpy02"
    {
      time 0.000000 1.718277
      param "Mercenary.CloakedSpy02"
      fixedlength
      cctype "cc_master"
      cctoken ""
    }
  }
  channel "emotion"
  {
    event expression "madUpper"
    {
      time 0.000000 1.968277
      param "player\Mercenary\emotion\emotion"
      param2 "madUpper"
      event_ramp
      {
        0.2500 0.7771 "curve_easein_to_curve_easeout"
        1.6137 0.7743 "curve_easein_to_curve_easeout"
        1.7576 0.6286
      }
    }
  }
}

scalesettings
{
  "CChoreoView" "64"
  "ExpressionTool" "100"
  "RampTool" "66"
  "GestureTool" "100"
  "SceneRampTool" "100"
}
fps 60
snap off
ignorePhonemes off
