// Choreo version 1
actor "Mercenary"
{
  channel "audio"
  {
    event speak "Mercenary.Go04"
    {
      time 0.000000 0.760454
      param "Mercenary.Go04"
      fixedlength
      cctype "cc_master"
      cctoken ""
    }
  }
  channel "emotion"
  {
    event expression "madUpper"
    {
      time 0.000000 0.916704
      param "player\Mercenary\emotion\emotion"
      param2 "madUpper"
      event_ramp
      {
        0.1652 0.8000 "curve_easein_to_curve_easeout"
        0.5864 0.8029 "curve_easein_to_curve_easeout"
      }
    }
  }
}

scalesettings
{
  "CChoreoView" "64"
  "ExpressionTool" "100"
  "RampTool" "66"
  "GestureTool" "100"
  "SceneRampTool" "100"
}
fps 60
snap off
ignorePhonemes off
