// Choreo version 1
actor "Mercenary"
{
  channel "audio"
  {
    event speak "Mercenary.HelpMeCapture03"
    {
      time 0.000000 1.491882
      param "Mercenary.HelpMeCapture03"
      fixedlength
      cctype "cc_master"
      cctoken ""
    }
  }
  channel "emotion"
  {
    event expression "madUpper"
    {
      time 0.000000 1.658549
      param "player\Mercenary\emotion\emotion"
      param2 "madUpper"
      event_ramp
      {
        0.1591 0.5914 "curve_catmullrom_normalize_x_to_curve_catmullrom_normalize_x"
        0.6121 0.4457
        0.9970 0.8400
        1.3161 0.9200 "curve_easein_to_curve_easeout"
      }
    }
  }
}

scalesettings
{
  "CChoreoView" "64"
  "ExpressionTool" "100"
  "RampTool" "66"
  "GestureTool" "100"
  "SceneRampTool" "100"
}
fps 60
snap off
ignorePhonemes off
