// Choreo version 1
actor "Mercenary"
{
  channel "audio"
  {
    event speak "Mercenary.HelpMeDefend04"
    {
      time -0.010417 3.019787
      param "Mercenary.HelpMeDefend04"
      fixedlength
      cctype "cc_master"
      cctoken ""
    }
  }
  channel "emotion"
  {
    event expression "mad"
    {
      time 2.769787 6.269787
      param "player\Mercenary\emotion\emotion"
      param2 "mad"
      event_ramp
      {
        0.5 1.0000 "curve_easein_to_curve_easeout"
        2.75 1.0000 "curve_easein_to_curve_easeout"
      }
    }
    event expression "madUpper"
    {
      time -0.010416999999999999 3.269787
      param "player\Mercenary\emotion\emotion"
      param2 "madUpper"
      event_ramp
      {
        0.2500 1.0000 "curve_easein_to_curve_easeout"
        2.7802039999999999 1.0000 "curve_easein_to_curve_easeout"
      }
    }
  }
}

scalesettings
{
  "CChoreoView" "64"
  "ExpressionTool" "100"
  "RampTool" "66"
  "GestureTool" "100"
  "SceneRampTool" "100"
}
fps 60
snap off
