// Choreo version 1
actor "Mercenary"
{
  channel "audio"
  {
    event speak "Mercenary.NegativeVocalization03"
    {
      time 0.000000 1.097143
      param "Mercenary.NegativeVocalization03"
      fixedlength
      cctype "cc_master"
      cctoken ""
    }
  }
  channel "emotion"
  {
    event expression "mad"
    {
      time 0.867976 2.128393
      param "player\Mercenary\emotion\emotion"
      param2 "mad"
      event_ramp
      {
        0.3737 0.9943 "curve_easein_to_curve_easeout"
        1.0798 0.7457 "curve_catmullrom_normalize_x_to_curve_catmullrom_normalize_x"
      }
    }
    event expression "madUpper"
    {
      time 0.000000 1.263810
      param "player\Mercenary\emotion\emotion"
      param2 "madUpper"
      event_ramp
      {
        0.3288 0.6514 "curve_catmullrom_normalize_x_to_curve_catmullrom_normalize_x"
        0.9881 0.8686 "curve_easein_to_curve_easeout"
      }
    }
  }
}

scalesettings
{
  "CChoreoView" "64"
  "ExpressionTool" "100"
  "RampTool" "66"
  "GestureTool" "100"
  "SceneRampTool" "100"
}
fps 60
snap off
ignorePhonemes off
