// Choreo version 1
actor "Mercenary"
{
  channel "audio"
  {
    event speak "Mercenary.NiceShot02"
    {
      time 0.000000 1.088435
      param "Mercenary.NiceShot02"
      fixedlength
      cctype "cc_master"
      cctoken ""
    }
  }
  channel "emotion"
  {
    event expression "happySmall"
    {
      time 0.838435 2.317602
      param "player\Mercenary\emotion\emotion"
      param2 "happySmall"
      event_ramp
      {
        0.5000 0.9800 "curve_easein_to_curve_easeout"
        1.2121 0.7771
      }
    }
    event expression "happySmallUpper"
    {
      time 0.000000 1.203018
      param "player\Mercenary\emotion\emotion"
      param2 "happySmallUpper"
      event_ramp
      {
        0.2500 1.0000 "curve_easein_to_curve_easeout"
        0.7030 1.0000 "curve_easein_to_curve_easeout"
      }
    }
  }
}

scalesettings
{
  "CChoreoView" "64"
  "ExpressionTool" "100"
  "RampTool" "66"
  "GestureTool" "100"
  "SceneRampTool" "100"
}
fps 60
snap off
ignorePhonemes off
