// Choreo version 1
actor "Mercenary"
{
  channel "audio"
  {
    event speak "Mercenary.NiceShot03"
    {
      time 0.000000 1.204535
      param "Mercenary.NiceShot03"
      fixedlength
      cctype "cc_master"
      cctoken ""
    }
  }
  channel "emotion"
  {
    event expression "happySmall"
    {
      time 0.954535 2.902452
      param "player\Mercenary\emotion\emotion"
      param2 "happySmall"
      event_ramp
      {
        0.5000 1.0000 "curve_easein_to_curve_easeout"
        1.6161 0.9400 "curve_easein_to_curve_easeout"
      }
    }
    event expression "happySmallUpper"
    {
      time 0.000000 1.454535
      param "player\Mercenary\emotion\emotion"
      param2 "happySmallUpper"
      event_ramp
      {
        0.2500 0.8743 "curve_easein_to_curve_easeout"
        0.9545 0.8743 "curve_easein_to_curve_easeout"
      }
    }
  }
}

scalesettings
{
  "CChoreoView" "64"
  "ExpressionTool" "100"
  "RampTool" "66"
  "GestureTool" "100"
  "SceneRampTool" "100"
}
fps 60
snap off
ignorePhonemes off
