// Choreo version 1
actor "Mercenary"
{
  channel "audio"
  {
    event speak "Mercenary.SpecialCompleted05"
    {
      time 0.000000 1.520907
      param "Mercenary.SpecialCompleted05"
      fixedlength
      cctype "cc_master"
      cctoken ""
    }
  }
  channel "emotion"
  {
    event expression "mad"
    {
      time 1.270907 2.375074
      param "player\Mercenary\emotion\emotion"
      param2 "mad"
      event_ramp
      {
        0.5000 1.0000 "curve_easein_to_curve_easeout"
        0.8901 1.0000 "curve_easein_to_curve_easeout"
      }
    }
    event expression "madUpper"
    {
      time 0.000000 1.770907
      param "player\Mercenary\emotion\emotion"
      param2 "madUpper"
      event_ramp
      {
        0.2500 1.0000 "curve_easein_to_curve_easeout"
        1.4315 1.0000 "curve_easein_to_curve_easeout"
      }
    }
  }
}

scalesettings
{
  "CChoreoView" "64"
  "ExpressionTool" "100"
  "RampTool" "66"
  "GestureTool" "100"
  "SceneRampTool" "100"
}
fps 60
snap off
ignorePhonemes off
