//
// TRACKER SCHEME RESOURCE FILE
//
// sections:
//		colors			- all the colors used by the scheme
//		basesettings	- contains settings for app to use to draw controls
//		fonts			- list of all the fonts used by app
//		borders			- description of all the borders
//
//
Scheme
{
	//Name - currently overriden in code
	//{
	//	"Name"	"ClientScheme"
	//}

	//////////////////////// COLORS ///////////////////////////
	Colors
	{
		// base colors
		"Orange"			"178 82 22 255"
		"OrangeDim"			"178 82 22 120"
		"LightOrange"		"188 112 0 128"
		
		"White"				"235 235 235 255"
		"Red"				"192 28 0 140"
		"RedSolid"			"192 28 0 255"
		"Blue"				"0 28 162 140"
		"Yellow"			"251 235 202 255"
		"TransparentYellow"	"251 235 202 140"
		//"Black"				"0 0 0 255"
		//Changed black to a NTSC safe color
		
		"Black"				"46 43 42 255"
		"TransparentBlack"	"0 0 0 196"
		"TransparentLightBlack"	"0 0 0 90"
		"FooterBGBlack"		"52 48 55 255"
		
		"HUDBlueTeam"		"104 124 155 127"
		"HUDRedTeam"		"180 92 77 127"
		"HUDSpectator"		"124 124 124 127"
		"HUDBlueTeamSolid"	"104 124 155 255"
		"HUDRedTeamSolid"	"180 92 77 255"
		"HUDDeathWarning"	"255 0 0 255"
		"HudWhite"			"255 255 255 255"
		"HudOffWhite"		"200 187 161 255"
		
		"Gray"				"178 178 178 255"

		"Blank"				"0 0 0 0"
		"ForTesting"		"255 0 0 32"
		"ForTesting_Magenta"	"255 0 255 255"
		"ForTesting_MagentaDim"	"255 0 255 120"

		"HudPanelForeground"		"123 110 59 184"
		"HudPanelBackground"		"123 110 59 184"
		"HudPanelBorder"			"255 255 255 102"

		"HudProgressBarActive"		"240 207 78 255"
		"HudProgressBarInActive"	"140 120 73 255"
		"HudProgressBarActiveLow"	"240 30 30 255"
		"HudProgressBarInActiveLow"	"240 30 30 99"	

		"HudTimerProgressActive"	"251 235 202 255"
		"HudTimerProgressInActive"	"52 48 45 255"
		"HudTimerProgressWarning"	"240 30 30 255"
		
		"TanDark"				"117 107 94 255"
		"TanLight"				"235 226 202 255"
		"TanDarker"				"46 43 42 255"
		
		// Building HUD Specific
		"LowHealthRed"		"255 0 0 255"
		"ProgressOffWhite"	"251 235 202 255"
		"ProgressBackground"	"250 234 201 51"
		"HealthBgGrey"		"72 71 69 255"
		
		"ProgressOffWhiteTransparent"	"251 235 202 128"
		
		"LabelDark"			"48 43 42 255"
		"LabelTransparent"	"109 96 80 180"
		
		"BuildMenuActive"	"248 231 198 255"
		
		"DisguiseMenuIconRed"	"192 56 63 255"
		"DisguiseMenuIconBlue"	"92 128 166 255"
		
 		//"MatchmakingDialogTitleColor"			"200 184 151 255"
 		//"MatchmakingMenuItemBackground"			"46 43 42 255"
 		//"MatchmakingMenuItemBackgroundActive"	"150 71 0 255"	
		//"MatchmakingMenuItemTitleColor"			"200 184 151 255"
		//"MatchmakingMenuItemDescriptionColor"	"200 184 151 255"

 		"MatchmakingDialogTitleColor"			"255 255 250 255"
 		"MatchmakingMenuItemBackground"			"46 43 42 255"
 		"MatchmakingMenuItemBackgroundActive"	"99 65 160 255"	
		"MatchmakingMenuItemTitleColor"			"255 255 250 255"
		"MatchmakingMenuItemDescriptionColor"	"255 255 250 255"
		
		"HTMLBackground"						"95 92 101 255"
		"FgColor_hl2"					"255 255 255 100"
		"BgColor_hl2"					"0 0 0 76"
		// weapon selection colors
		"SelectionNumberFg_hl2"		"255 220 0 255"
		"SelectionTextFg_hl2"			"255 220 0 255"
		"SelectionEmptyBoxBg_hl2" 		"0 0 0 80"
		"SelectionBoxBg_hl2" 			"0 0 0 80"
		"SelectionSelectedBoxBg_hl2"	"0 0 0 80"
		
		// OPEN FORTRESS	
		"PurpleHeart"	"99 65 160 255"
		"PurpleBlue"	"174 173 240 255"
		"PurplePale"	"216 220 255 255"
		"PurpleBlack"	"39 39 39 255"
		"WhiteBaby"		"255 255 250 255"
	}

	///////////////////// BASE SETTINGS ////////////////////////
	// default settings for all panels
	// controls use these to determine their settings
	BaseSettings
	{
		// vgui_controls color specifications
		Border.Bright					"Blank"		// the lit side of a control
		Border.Dark						"Black"		// the dark/unlit side of a control
		Border.Selection				"Gray"			// the additional border color for displaying the default/selected button

		Button.TextColor				"TanDark"
		Button.BgColor					"Yellow"
		Button.ArmedTextColor			"Black"
		Button.ArmedBgColor				"PurpleHeart" // was orange
		Button.DepressedTextColor		"Black"
		Button.DepressedBgColor			"PurpleHeart" // was orange

		CheckButton.TextColor			"PurpleHeart" // was orange
		CheckButton.SelectedTextColor	"PurpleHeart" // was orange
		CheckButton.BgColor				"TransparentBlack"
		CheckButton.Border1  			"Border.Dark" 		// the left checkbutton border
		CheckButton.Border2  			"Border.Bright"		// the right checkbutton border
		CheckButton.Check				"PurpleHeart"				// color of the check itself , was orange

		ComboBoxButton.ArrowColor		"TanLight"
		ComboBoxButton.ArmedArrowColor	"TanLight"
		ComboBoxButton.BgColor			"TransparentBlack"
		ComboBoxButton.DisabledBgColor	"Blank"

		Frame.BgColor					"TransparentBlack"
		Frame.OutOfFocusBgColor			"TransparentBlack"
		Frame.FocusTransitionEffectTime	"0.0"	[$X360] // time it takes for a window to fade in/out on focus/out of focus
		Frame.TransitionEffectTime		"0.0"	[$X360] // time it takes for a window to fade in/out on open/close
		Frame.FocusTransitionEffectTime	"0.15"	[$WIN32] // time it takes for a window to fade in/out on focus/out of focus
		Frame.TransitionEffectTime		"0.15"	[$WIN32] // time it takes for a window to fade in/out on open/close
		Frame.AutoSnapRange				"0"
		FrameGrip.Color1				"Blank"
		FrameGrip.Color2				"Blank"
		FrameTitleButton.FgColor		"Blank"
		FrameTitleButton.BgColor		"Blank"
		FrameTitleButton.DisabledFgColor	"Blank"
		FrameTitleButton.DisabledBgColor	"Blank"
		FrameSystemButton.FgColor		"Blank"
		FrameSystemButton.BgColor		"Blank"
		FrameSystemButton.Icon			""
		FrameSystemButton.DisabledIcon	""
		FrameTitleBar.TextColor			"PurpleHeart" // was orange
		FrameTitleBar.BgColor			"Blank"
		FrameTitleBar.DisabledTextColor	"PurpleHeart" // was orange
		FrameTitleBar.DisabledBgColor	"Blank"

		GraphPanel.FgColor				"PurpleHeart" // was orange
		GraphPanel.BgColor				"TransparentBlack"

		Label.TextDullColor				"TanDark"
		Label.TextColor					"TanLight"
		Label.TextBrightColor			"TanLight"
		Label.SelectedTextColor			"White"
		Label.BgColor					"Blank"
		Label.DisabledFgColor1			"Blank"
		Label.DisabledFgColor2			"LightOrange"

		ListPanel.TextColor					"PurpleHeart" // was orange
		ListPanel.BgColor					"TransparentBlack"
		ListPanel.SelectedTextColor			"Black"
		ListPanel.SelectedBgColor			"Red"
		ListPanel.SelectedOutOfFocusBgColor	"Red"
		ListPanel.EmptyListInfoTextColor	"PurpleHeart" // was orange

		Menu.TextColor					"TanLight"
		Menu.BgColor					"TransparentBlack"
		Menu.ArmedTextColor				"TanDark"
		Menu.ArmedBgColor				"TanLight"
		Menu.TextInset					"6"

		Chat.TypingText					"PurpleHeart" // was orange

		Panel.FgColor					"Gray"
		Panel.BgColor					"Blank"

		HTML.BgColor					"Blank"

		ProgressBar.FgColor				"ProgressOffWhite"
		ProgressBar.BgColor				"ProgressBackground"

		CircularProgressBar.FgColor		"White"
		CircularProgressBar.BgColor		"White"
		
		"BuildingHealthBar.BgColor"		"HealthBgGrey"
		"BuildingHealthBar.Health"		"ProgressOffWhite"
		"BuildingHealthBar.LowHealth"	"LowHealthRed"

		PropertySheet.TextColor			"PurpleHeart" // was orange
		PropertySheet.SelectedTextColor	"PurpleHeart" // was orange
		PropertySheet.TransitionEffectTime	"0.25"	// time to change from one tab to another

		RadioButton.TextColor			"PurpleHeart" // was orange
		RadioButton.SelectedTextColor	"PurpleHeart" // was orange

		RichText.TextColor				"Gray"
		RichText.BgColor				"Blank"
		RichText.SelectedTextColor		"Gray"
		RichText.SelectedBgColor		"Red"

		ScrollBarButton.FgColor				"Gray"
		ScrollBarButton.BgColor				"Blank"
		ScrollBarButton.ArmedFgColor		"Gray"
		ScrollBarButton.ArmedBgColor		"Blank"
		ScrollBarButton.DepressedFgColor	"Gray"
		ScrollBarButton.DepressedBgColor	"Blank"

		ScrollBarSlider.FgColor				"Blank"		// nob color
		ScrollBarSlider.BgColor				"Blank"		// slider background color

		SectionedListPanel.HeaderTextColor	"PurpleHeart" // was orange
		SectionedListPanel.HeaderBgColor	"Blank"
		SectionedListPanel.DividerColor		"Black"
		SectionedListPanel.TextColor		"PurpleHeart" // was orange
		SectionedListPanel.BrightTextColor	"PurpleHeart" // was orange
		SectionedListPanel.BgColor			"TransparentLightBlack"
		SectionedListPanel.SelectedTextColor			"Black"
		SectionedListPanel.SelectedBgColor				"Red"
		SectionedListPanel.OutOfFocusSelectedTextColor	"Black"
		SectionedListPanel.OutOfFocusSelectedBgColor	"255 255 255 32"

		Slider.NobColor				"108 108 108 255"
		Slider.TextColor			"127 140 127 255"
		Slider.TrackColor			"31 31 31 255"
		Slider.DisabledTextColor1	"117 117 117 255"
		Slider.DisabledTextColor2	"30 30 30 255"

		TextEntry.TextColor			"Gray"
		TextEntry.BgColor			"Blank"
		TextEntry.CursorColor		"Gray"
		TextEntry.DisabledTextColor	"Gray"
		TextEntry.DisabledBgColor	"Blank"
		TextEntry.SelectedTextColor	"TanLight"
		TextEntry.SelectedBgColor	"Blank"
		TextEntry.OutOfFocusSelectedBgColor	"Blank"
		TextEntry.FocusEdgeColor	"Blank"

		ToggleButton.SelectedTextColor	"PurpleHeart" // was orange

		Tooltip.TextColor			"TransparentBlack"
		Tooltip.BgColor				"Red"

		TreeView.BgColor			"TransparentBlack"

		WizardSubPanel.BgColor		"Blank"
		
		TimerProgress.Active		"HudTimerProgressActive"
		TimerProgress.InActive		"HudTimerProgressInActive"
		TimerProgress.Warning		"HudTimerProgressWarning"

		HudObjectives.FgColor		"HudPanelForeground"
		HudObjectives.BgColor		"HudPanelBackground"
		HudObjectives.BorderColor	"HudPanelBorder"
				
		HudProgressBar.Active		"HudProgressBarActive"
		HudProgressBar.InActive		"HudProgressBarInActive"
		
		HudCaptureIcon.Active		"HudProgressBarActive"
		HudCaptureIcon.InActive		"HudProgressBarInActive"
		HudCaptureProgressBar.Active	"HudProgressBarActive"
		HudCaptureProgressBar.InActive	"HudProgressBarInActive"

		// scheme-specific colors
		"FgColor"		"PurpleHeart" // was orange
		"BgColor"		"TransparentBlack"

		"ViewportBG"		"Blank"
		"TeamSpec"			"204 204 204 255"
		"TeamRed"			"255 64 64 255"
		"TeamBlue"			"153 204 255 255"

		"MapDescriptionText"	"Gray" // the text used in the map description window
		"HudIcon_Green"		"0 160 0 255"
		"HudIcon_Red"		"160 0 0 255"

		// CHudMenu
		"ItemColor"		"255 167 42 200"	// default 255 167 42 255
		"MenuColor"		"233 208 173 255"
		"MenuBoxBg"		"0 0 0 100"

		// weapon selection colors
		"SelectionNumberFg"		"251 235 202 255"
		"SelectionTextFg"		"251 235 202 255"
		"SelectionEmptyBoxBg" 	"0 0 0 80"
		"SelectionBoxBg" 		"0 0 0 80"
		"SelectionSelectedBoxBg" "0 0 0 190"

		// Hint message colors
		"HintMessageFg"			"255 255 255 255"
		"HintMessageBg" 		"0 0 0 60"

		"ProgressBarFg"			"255 30 13 255"

		// Top-left corner of the "Counter-Strike" on the main screen
		"Main.Title1.X"		"32"
		"Main.Title1.Y"		"180"
		"Main.Title1.Color"	"255 255 255 255"

		// Top-left corner of the "SOURCE" on the main screen
		"Main.Title2.X"		"380"
		"Main.Title2.Y"		"205"
		"Main.Title2.Color"	"255 255 255 80"

		// Top-left corner of the "BETA" on the main screen
		"Main.Title3.X"		"460"
		"Main.Title3.Y"		"-10"
		"Main.Title3.Color"	"255 255 0 255"

		// Top-left corner of the menu on the main screen
		"Main.Menu.X"		"32"
		"Main.Menu.Y"		"248"

		// Blank space to leave beneath the menu on the main screen
		"Main.BottomBorder"	"32"
		
		"VguiScreenCursor"			"255 208 64 255"
	}

	//////////////////////// BITMAP FONT FILES /////////////////////////////
	//
	// Bitmap Fonts are ****VERY*** expensive static memory resources so they are purposely sparse
	BitmapFontFiles
	{
		// UI buttons, custom font, (256x64)
		"Buttons"		"materials/vgui/fonts/buttons_32.vbf"
	}


	//
	//////////////////////// FONTS /////////////////////////////
	//
	// describes all the fonts
	Fonts
	{
		// fonts are used in order that they are listed
		// fonts listed later in the order will only be used if they fulfill a range not already filled
		// if a font fails to load then the subsequent fonts will replace
		"Default"
		{
			"1"
			{
				"name"		"Verdana"
				"tall"		"12"
				"weight"	"900"
				"range"		"0x0000 0x017F" //	Basic Latin, Latin-1 Supplement, Latin Extended-A
				"yres"	"480 599"
				"antialias"	"1"
			}
			"2"
			{
				"name"		"Verdana"
				"tall"		"13"	[$X360]
				"tall"		"20"	[$WIN32]
				"weight"	"900"
				"range"		"0x0000 0x017F" //	Basic Latin, Latin-1 Supplement, Latin Extended-A
				"yres"	"600 767"
				"antialias"	"1"
			}
			"3"
			{
				"name"		"Verdana"
				"tall"		"14"
				"weight"	"900"
				"range"		"0x0000 0x017F" //	Basic Latin, Latin-1 Supplement, Latin Extended-A
				"yres"	"768 1023"
				"antialias"	"1"
			}
			"4"
			{
				"name"		"Verdana"
				"tall"		"20"
				"weight"	"900"
				"range"		"0x0000 0x017F" //	Basic Latin, Latin-1 Supplement, Latin Extended-A
				"yres"	"1024 1199"
				"antialias"	"1"
			}
			"5"
			{
				"name"		"Verdana"
				"tall"		"24"
				"weight"	"900"
				"range"		"0x0000 0x017F" //	Basic Latin, Latin-1 Supplement, Latin Extended-A
				"yres"	"1200 6000"
				"antialias"	"1"
			}
			"6"
			{
				"name"		"Verdana"
				"tall"		"12"
				"range" 		"0x0000 0x00FF"
				"weight"		"900"
				"antialias"	"1"
			}
			"7"
			{
				"name"		"Arial"
				"tall"		"12"
				"range" 		"0x0000 0x00FF"
				"weight"		"800"
				"antialias"	"1"
			}

			
		}
		"DefaultUnderline"
		{
			"1"
			{
				"name"		"Tahoma"
				"tall"		"12"
				"weight"	"500"
				"underline" "1"
				"range"		"0x0000 0x017F" //	Basic Latin, Latin-1 Supplement, Latin Extended-A
				"antialias"	"1"
			}
			"2"
			{
				"name"		"Arial"
				"tall"		"11"
				"range" 		"0x0000 0x00FF"
				"weight"		"800"
				"antialias"	"1"
			}
		}
		"DefaultSmall"
		{
			"1"
			{
				"name"		"Verdana"
				"tall"		"12"
				"weight"	"0"
				"range"		"0x0000 0x017F"
				"yres"	"480 599"
				"antialias"	"1"
			}
			"2"
			{
				"name"		"Verdana"
				"tall"		"13"
				"weight"	"0"
				"range"		"0x0000 0x017F"
				"yres"	"600 767"
				"antialias"	"1"
			}
			"3"
			{
				"name"		"Verdana"
				"tall"		"14"
				"weight"	"0"
				"range"		"0x0000 0x017F"
				"yres"	"768 1023"
				"antialias"	"1"
			}
			"4"
			{
				"name"		"Verdana"
				"tall"		"20"
				"weight"	"0"
				"range"		"0x0000 0x017F"
				"yres"	"1024 1199"
				"antialias"	"1"
			}
			"5"
			{
				"name"		"Verdana"
				"tall"		"22"
				"weight"	"0"
				"range"		"0x0000 0x017F"
				"yres"	"1200 6000"
				"antialias"	"1"
			}
			"6"
			{
				"name"		"Arial"
				"tall"		"12"
				"range" 		"0x0000 0x00FF"
				"weight"		"0"
				"antialias"	"1"
			}
		}
		"DefaultVerySmall"
		{
			"1"
			{
				"name"		"Verdana"
				"tall"		"12"
				"weight"	"0"
				"range"		"0x0000 0x017F" //	Basic Latin, Latin-1 Supplement, Latin Extended-A
				"yres"	"480 599"
				"antialias"	"1"
			}
			"2"
			{
				"name"		"Verdana"
				"tall"		"12"
				"weight"	"0"
				"range"		"0x0000 0x017F" //	Basic Latin, Latin-1 Supplement, Latin Extended-A
				"yres"	"600 767"
				"antialias"	"1"
			}
			"3"
			{
				"name"		"Verdana"
				"tall"		"12"
				"weight"	"0"
				"range"		"0x0000 0x017F" //	Basic Latin, Latin-1 Supplement, Latin Extended-A
				"yres"	"768 1023"
				"antialias"	"1"
			}
			"4"
			{
				"name"		"Verdana"
				"tall"		"14"
				"weight"	"0"
				"range"		"0x0000 0x017F" //	Basic Latin, Latin-1 Supplement, Latin Extended-A
				"yres"	"1024 1199"
				"antialias"	"1"
			}
			"5"
			{
				"name"		"Verdana"
				"tall"		"16"
				"weight"	"0"
				"range"		"0x0000 0x017F" //	Basic Latin, Latin-1 Supplement, Latin Extended-A
				"yres"	"1200 6000"
				"antialias"	"1"
			}
		}
		DefaultLarge
		{
			"1"
			{
				"name"		"Verdana"
				"tall"		"18"
				"weight"	"900"
				"range"		"0x0000 0x017F" //	Basic Latin, Latin-1 Supplement, Latin Extended-A
				"yres"		"480 599"
				"antialias"	"1"
			}
			"2"
			{
				"name"		"Verdana"
				"tall"		"21"
				"weight"	"900"
				"range"		"0x0000 0x017F" //	Basic Latin, Latin-1 Supplement, Latin Extended-A
				"yres"		"600 767"
				"antialias"	"1"
			}
			"3"
			{
				"name"		"Verdana"
				"tall"		"22"
				"weight"	"900"
				"range"		"0x0000 0x017F" //	Basic Latin, Latin-1 Supplement, Latin Extended-A
				"yres"		"768 1023"
				"antialias"	"1"
			}
			"4"
			{
				"name"		"Verdana"
				"tall"		"28"
				"weight"	"900"
				"range"		"0x0000 0x017F" //	Basic Latin, Latin-1 Supplement, Latin Extended-A
				"yres"		"1024 1199"
				"antialias"	"1"
			}
			"5"
			{
				"name"		"Verdana"
				"tall"		"30"
				"weight"	"900"
				"range"		"0x0000 0x017F" //	Basic Latin, Latin-1 Supplement, Latin Extended-A
				"yres"	"1200 6000"
				"antialias"	"1"
			}
			"6"
			{
				"name"		"Verdana"
				"tall"		"20"
				"range" 		"0x0000 0x00FF"
				"weight"		"900"
				"antialias"	"1"
			}
			"7"
			{
				"name"		"Arial"
				"tall"		"20"
				"range" 		"0x0000 0x00FF"
				"weight"		"800"
			}
		}
		CenterPrintText
		{
			// note that this scales with the screen resolution
			"1"
			{
				"name"		"Trebuchet MS"
				"tall"		"18"
				"weight"	"900"
				"antialias" "1"
				"additive"	"1"
			}
		}

		HudHintText
		{
			"1"
			{
				"name"		"Verdana"
				"tall"		"12"
				"weight"	"700"
				"yres"	"480 599"
				"antialias"	"1"
			}
			"2"
			{
				"name"		"Verdana"
				"tall"		"13"	[$X360]
				"tall"		"23"	[$WIN32]
				"weight"	"700"
				"yres"	"600 767"
				"antialias"	"1"
			}
			"3"
			{
				"name"		"Verdana"
				"tall"		"14"
				"weight"	"700"
				"yres"	"768 1023"
				"antialias"	"1"
			}
			"4"
			{
				"name"		"Verdana"
				"tall"		"20"
				"weight"	"700"
				"yres"	"1024 1199"
				"antialias"	"1"
			}
			"5"
			{
				"name"		"Verdana"
				"tall"		"24"
				"weight"	"700"
				"yres"	"1200 10000"
				"antialias"	"1"
			}
		}
		"HudFontGiant"
		{
			"1"
			{
				"name"		"TF2"
				"tall"		"24"
				"tall_lodef"	"80"
				"weight"	"500"
				"additive"	"0"
				"antialias" "1"
				"yres"		"480 599"
			}
			"2"
			{
				"name"		"TF2"
				"tall"		"32"
				"tall_hidef"	"120"
				"weight"	"500"
				"additive"	"0"
				"antialias" "1"
				"yres"		"600 767"
			}
			"3"
			{
				"name"		"TF2"
				"tall"		"44"
				"weight"	"500"
				"additive"	"0"
				"antialias" "1"
				"yres"		"768 1023"
			}
			"4"
			{
				"name"		"TF2"
				"tall"		"48"
				"weight"	"500"
				"additive"	"0"
				"antialias" "1"
				"yres"		"1024 1199"
			}
			"5"
			{
				"name"		"TF2"
				"tall"		"52"
				"weight"	"500"
				"additive"	"0"
				"antialias" "1"
				"yres"		"1200 10000"
			}
		}
		"HudFontGiantBold"
		{
			"1"
			{
				"name"		"TF2 Build"
				"tall"		"44"
				"tall_lodef"	"52"
				"weight"	"500"
				"additive"	"0"
				"antialias" "1"
			}
		}
		"HudFontBig"
		{
			"1"
			{
				"name"		"TF2"
				"tall"		"36"
				"tall_hidef"	"48"
				"weight"	"500"
				"additive"	"0"
				"antialias" "1"
			}
		}
		"HudFontMediumBig"
		{
			"1"
			{
				"name"		"TF2"
				"tall"		"30"
				"weight"	"500"
				"additive"	"0"
				"antialias" "1"
			}
		}	
		"HudFontMedium"
		{
			"1"
			{
				"name"		"TF2"
				"tall"		"24"
				"tall_lodef"		"28"
				"weight"	"500"
				"additive"	"0"
				"antialias" "1"
			}
		}
		"HudFontMediumSecondary"
		{
			"1"
			{
				"name"		"TF2 Secondary"
				"tall"		"24"
				"weight"	"500"
				"additive"	"0"
				"antialias" "1"
			}
		}
		"HudFontMediumBold"
		{
			"1"
			{
				"name"		"TF2 Build"
				"tall"		"24"
				"weight"	"500"
				"additive"	"0"
				"antialias" "1"
			}
		}
		"HudFontMediumSmall"
		{
			"1"
			{
				"name"		"TF2"
				"tall"		"18"
				"tall_hidef"	"24"
				"tall_lodef"	"18"
				"weight"	"500"
				"additive"	"0"
				"antialias" "1"
			}
		}
		"HudFontMediumSmallSecondary"
		{
			"1"
			{
				"name"		"TF2 Secondary"
				"tall"		"18"
				"tall_hidef"	"24"
				"tall_lodef"	"20"
				"weight"	"500"
				"additive"	"0"
				"antialias" "1"
			}
		}
		"HudFontSmall"
		{
			"1"
			{
				"name"		"TF2 Secondary"
				"tall"		"14"
				"tall_lodef"	"16"
				"weight"	"500"
				"additive"	"0"
				"antialias" 	"1"
			}
		}	
		"HudFontSmallBold"
		{
			"1"
			{
				"name"		"TF2 Build"
				"tall"		"14"
				"weight"	"500"
				"additive"	"0"
				"antialias" "1"
			}
		}
		"HudFontSmallest"
		{
			"1"
			{
				"name"		"TF2 Secondary"
				"tall"		"11"
				"weight"	"500"
				"additive"	"0"
				"antialias" 	"1"
			}
		}
		"HudFontMediumSmallBold"
		{
			"1"
			{
				"name"		"TF2 Build"
				"tall"		"18"
				"weight"	"500"
				"additive"	"0"
				"antialias" "1"
			}
		}
		GameUIButtons
		{
			"1"	//[$WIN32]
			{
				"bitmap"	"1"
				"name"		"Buttons"
				"scalex"	"1.0"
				"scalex_lodef"		"0.75"
				"scaley"	"1.0"
				"scaley_lodef"		"0.75"
			}
		}
		GameUIButtonsSmall
		{
			"1"	[$WIN32]
			{
				"bitmap"	"1"
				"name"		"Buttons"
				"scalex"	"0.5"
				"scaley"	"0.5"
			}
		}
		GameUIButtonsSmallest
		{
			"1"	[$WIN32]
			{
				"bitmap"	"1"
				"name"		"Buttons"
				"scalex"	"0.4"
				"scaley"	"0.4"
			}
		}
		"GameUIButtonText"
		{
			"1"
			{
				"name"		"TF2 Secondary"
				"tall"		"18"
				"tall_hidef"	"24"
				"tall_lodef"	"18"
				"weight"	"500"
				"additive"	"0"
				"antialias" "1"
			}
		}
		"HudClassHealth"
		{
			"1"
			{
				"name"		"TF2"
				"tall"		"16"
				"tall_hidef"	"22"
				"tall_lodef"	"22"
				"weight"	"500"
				"additive"	"0"
				"antialias" "1"
			}
		}
		"SpectatorKeyHints"
		{
			"1"
			{
				"name"		"Verdana"
				"tall"		"8"
				"weight"	"500"
				"additive"	"0"
				"antialias" "1"
			}
		}
		"ClockSubText"
		{
			"1"
			{
				"name"		"Verdana"
				"tall"		"9"
				"weight"	"500"
				"additive"	"0"
				"antialias" "1"
			}
		}
		"ClockSubTextSuddenDeath"
		{
			"1"
			{
				"name"		"Verdana"
				"tall"		"8"
				"tall_hidef"	"9"
				"tall_lodef"	"10"
				"weight"	"500"
				"additive"	"0"
				"antialias" "1"
			}
		}
		"ClockSubTextTiny"
		{
			"1"
			{
				"name"		"Verdana"
				"tall"		"8"
				"tall_hidef"	"7"
				"weight"	"500"
				"additive"	"0"
				"antialias" "1"
			}
		}
		"HudSelectionText"
		{
			"1"
			{
				"name"		"TF2"
				"tall"		"15"
				"weight"	"700"
				"antialias" 	"1"
				"yres"		"1 599"
				"range"		"0x0000 0x017F" //	Basic Latin, Latin-1 Supplement, Latin Extended-A
				"additive"	"1"
			}
			"2"
			{
				"name"		"TF2"
				"tall"		"15"	[$X360]
				"tall"		"21"	[$WIN32]
				"weight"	"700"
				"antialias" 	"1"
				"yres"		"600 767"
				"range"		"0x0000 0x017F" //	Basic Latin, Latin-1 Supplement, Latin Extended-A
				"additive"	"1"
			}
			"3"
			{
				"name"		"TF2"
				"tall"		"18"
				"weight"	"900"
				"antialias" 	"1"
				"yres"		"768 1023"
				"range"		"0x0000 0x017F" //	Basic Latin, Latin-1 Supplement, Latin Extended-A
			}
			"4"
			{
				"name"		"TF2"
				"tall"		"21"
				"weight"	"900"
				"antialias" 	"1"
				"yres"		"1024 1199"
				"range"		"0x0000 0x017F" //	Basic Latin, Latin-1 Supplement, Latin Extended-A
			}
			"5"
			{
				"name"		"TF2"
				"tall"		"24"
				"weight"	"1000"
				"antialias" 	"1"
				"yres"		"1200 10000"
				"range"		"0x0000 0x017F" //	Basic Latin, Latin-1 Supplement, Latin Extended-A
			}
		}
		DebugOverlay
		{
			"1"	[$X360]
			{
				"name"		"Courier New"
				"tall"		"14"
				"weight"	"400"
				"outline"	"1"
				"range"		"0x0000 0x017F" // Basic Latin, Latin-1 Supplement, Latin Extended-A
				"antialias"	"1"
			}
			"1"	[$WIN32]
			{
				"name"		"Tahoma"
				"tall"		"18"
				"weight"	"200"
				"outline"	"1"
				"antialias"	"1"
			}
		}		
		TFTypeDeath
		{
			"1"
			{
				"name"  	"tfd" // tfd.ttf
				"tall"  	"28"
				"weight" 	"0"
				"additive" 	"0"
				"antialias" 	"1"
			}
		}
		
		Icons
		{
			"1"
			 {
				"name"  	"Team Fortress" // tf.ttf
				"tall"  	"28"
				"weight" 	"0"
				"additive" 	"1"
				"antialias" 	"1"
			}
		}
		"BetaFont"
		{
			"1"
			{
				"name"		"Courier New"
				"tall"		"90"
				"weight"	"900"
				"range"		"0x0000 0x007F"	//	Basic Latin
				"antialias" "1"
				"additive"	"0"
			}
		}

		HudNumbers
		{
			"1"
			{
				"name"  "Team Fortress" // tf.ttf
				"tall"  "28"
				"weight" "0"
				"additive" "1"
				"antialias" "1"
			}
			"2"
			{
				"name"  "Verdana"
				"tall"  "28"
				"weight" "0"
				"additive" "1"
				"antialias" "1"
			}
		}
		"CloseCaption_Normal"
		{
			"1"
			{
				"name"		"Tahoma"
				"tall"		"24"
				"tall_hidef"	"32"
				"weight"	"500"
				"range"		"0x0000 0x017F" //	Basic Latin, Latin-1 Supplement, Latin Extended-A
			}
		}
		"CloseCaption_Italic"
		{
			"1"
			{
				"name"		"Tahoma"
				"tall"		"24"
				"tall_hidef"	"32"
				"weight"	"500"
				"italic"	"1"
				"range"		"0x0000 0x017F" //	Basic Latin, Latin-1 Supplement, Latin Extended-A
			}
		}
		"CloseCaption_Bold"
		{
			"1"
			{
				"name"		"Tahoma"
				"tall"		"24"
				"tall_hidef"	"32"
				"weight"	"900"
				"range"		"0x0000 0x017F" //	Basic Latin, Latin-1 Supplement, Latin Extended-A
			}
		}
		"CloseCaption_BoldItalic"
		{
			"1"
			{
				"name"		"Tahoma"
				"tall"		"24"
				"tall_hidef"	"32"
				"weight"	"900"
				"italic"	"1"
				"range"		"0x0000 0x017F" //	Basic Latin, Latin-1 Supplement, Latin Extended-A
			}
		}
		"CloseCaption_Small"
		{
			"1"
			{
				"name"		"Tahoma"
				"tall"		"16"
				"tall_hidef"	"24"
				"weight"	"900"
				"range"		"0x0000 0x017F" //	Basic Latin, Latin-1 Supplement, Latin Extended-A
			}
		}
		// this is the symbol font
		"Marlett"
		{
			"1"
			{
				"name"		"Marlett"
				"tall"		"11"
				"weight"	"0"
				"symbol"	"1"
				"range"		"0x0000 0x007F"	//	Basic Latin
			}
		}
		"MenuMainTitle"
		{
			"1"
			{
				"name"		"TF2"
				"tall"		"24"
				"antialias" "1"
				"weight"	"500"
			}
		}
		"MenuClassBuckets"
		{
			"1"
			{
				"name"		"TF2 Secondary"
				"tall"		"11"
				"tall_lodef"	"14"
				"antialias" "1"
				"weight"	"500"
			}
		}
		"MenuKeys"
		{
			"1"
			{
				"name"		"TF2"
				"tall"		"12"
				"antialias" "1"
				"weight"	"500"
			}
		}
		"ChalkboardTitle"
		{
			"1"
			{
				"name"			"TF2 Professor"
				"tall"			"28"
				"tall_lodef"	"48"
				"tall_hidef"	"48"
				"antialias"		"1"
				"weight"		"500"
				"weight_lodef"	"800"
				"weight_hidef"	"1000"
			}
		}
		"ChalkboardTitleMedium"
		{
			"1"
			{
				"name"		"TF2 Professor"
				"tall"		"24"
				"tall_lodef"	"36"
				"tall_hidef"	"36"
				"antialias" "1"
				"weight"	"500"
			}
		}
		"ChalkboardText"
		{
			"1"
			{
				"name"			"TF2 Professor"
				"tall"			"14"
				"tall_lodef"	"32"
				"tall_hidef"	"32"
				"antialias"		"1"
				"weight"		"500"
			}
		}
		"ScoreboardVerySmall"
		{
			"1"
			{
				"name"		"Verdana"
				"tall"		"8"
				"tall_hidef"	"10"
				"tall_lodef"	"14"
				"weight"	"400"
				"additive"	"0"
				"antialias" "1"
			}
		}
		"ScoreboardSmall"
		{
			"1"
			{
				"name"		"TF2 Secondary"
				"tall"		"10"
				"tall_hidef"	"12"
				"tall_lodef"	"14"
				"weight"	"400"
				"additive"	"0"
				"antialias" "1"
			}
		}
		"ScoreboardMediumSmall"
		{
			"1"
			{
				"name"		"TF2"
				"tall"		"14"
				"weight"	"500"
				"range"		"0x0000 0x007F"	//	Basic Latin
				"antialias" "1"
				"additive"	"0"
			}
		}
		"ScoreboardMedium"
		{
			"1"
			{
				"name"		"TF2 Secondary"
				"tall"		"20"
				"weight"	"500"
				"range"		"0x0000 0x007F"	//	Basic Latin
				"antialias" "1"
				"additive"	"0"
			}
		}
		"ScoreboardTeamName"
		{
			"1"
			{
				"name"		"TF2"
				"tall"		"20"
				"tall_hidef"	"24"
				"tall_lodef"	"24"
				"weight"	"500"
				"range"		"0x0000 0x007F"	//	Basic Latin
				"antialias" "1"
				"additive"	"0"
			}
		}
		"ScoreboardTeamNameLarge"
		{
			"1"
			{
				"name"		"TF2"
				"tall"		"34"
				"tall_hidef"	"38"
				"tall_lodef"	"38"
				"weight"	"500"
				"range"		"0x0000 0x007F"	//	Basic Latin
				"antialias" "1"
				"additive"	"0"
			}
		}

		"ScoreboardTeamScore"
		{
			"1"
			{
				"name"		"TF2"
				"tall"		"52"
				"tall_lodef"		"80"
				"range" 	"0x0000 0x00FF"
				"weight"	"400"
				"yres"		"1 599"
				"antialias" "1"
			}
			"2"
			{
				"name"		"TF2"
				"tall"		"72"
				"tall_hidef"	"120"
				"range" 	"0x0000 0x00FF"
				"weight"	"400"
				"yres"		"600 767"
				"antialias" "1"
			}
			"3"
			{
				"name"		"TF2"
				"tall"		"100"
				"range" 	"0x0000 0x00FF"
				"weight"	"400"
				"yres"		"768 1023"
				"antialias" "1"
			}
			"4"
			{
				"name"		"TF2"
				"tall"		"140"
				"range" 	"0x0000 0x00FF"
				"weight"	"400"
				"yres"		"1024 1199"
				"antialias" "1"
			}
			"5"
			{
				"name"		"TF2"
				"tall"		"180"
				"range" 	"0x0000 0x00FF"
				"weight"	"400"
				"yres"		"1200 10000"
				"antialias" "1"
			}
		}

		"TargetID"
		{
			"1"
			{
				"name"		"Verdana"
				"tall"		"12"
				"weight"	"700"
				"yres"		"480 599"
				"dropshadow"	"0"
				"antialias"	"1"
			}
			"2"
			{
				"name"		"Verdana"
				"tall"		"13"
				"weight"	"700"
				"yres"		"600 767"
				"dropshadow"	"0"
				"antialias"	"1"
			}
			"3"
			{
				"name"		"Verdana"
				"tall"		"14"
				"weight"	"700"
				"yres"		"768 1023"
				"dropshadow"	"0"
				"antialias"	"1"
			}
			"4"
			{
				"name"		"Verdana"
				"tall"		"20"
				"weight"	"700"
				"yres"		"1024 1199"
				"dropshadow"	"0"
				"antialias"	"1"
			}
			"5"
			{
				"name"		"Verdana"
				"tall"		"24"
				"weight"	"700"
				"yres"		"1200 10000"
				"dropshadow"	"0"
				"antialias"	"1"
			}
		}
		"ChatFont"
		{
			"1"
			{
				"name"		"TF2"
				"tall"		"12"
				"weight"	"700"
				"yres"		"480 599"
				"dropshadow"	"1"
				"antialias"	"1"
			}
			"2"
			{
				"name"		"Verdana"
				"tall"		"13"
				"weight"	"700"
				"yres"		"600 767"
				"dropshadow"	"1"
				"antialias"	"1"
			}
			"3"
			{
				"name"		"Verdana"
				"tall"		"14"
				"weight"	"700"
				"yres"		"768 1023"
				"dropshadow"	"1"
				"antialias"	"1"
			}
			"4"
			{
				"name"		"Verdana"
				"tall"		"20"
				"weight"	"700"
				"yres"		"1024 1199"
				"dropshadow"	"1"
				"antialias"	"1"
			}
			"5"
			{
				"name"		"Verdana"
				"tall"		"24"
				"weight"	"700"
				"yres"		"1200 10000"
				"dropshadow"	"1"
				"antialias"	"1"
			}
		}

		MenuSmallestFont
		{
			"1"
			{
				"name"			"Arial Black"
				"tall"			"8"
				"tall_lodef"	"12"
				"range" 		"0x0000 0x00FF"
				"weight"		"300"
				"antialias"		"1"
			}
		}	
		
		MenuSmallFont
		{
			"1"
			{
				"name"		"TF2"
				"tall"		"14"
				"tall_lodef"	"18"
				"range" 		"0x0000 0x00FF"
				"weight"		"300"
				"weight_lodef"	"600"
				"antialias"		"1"
			}
		}			
		CapPlayerFont
		{
			"1"
			{
				"name"		"TF2"
				"tall"		"12"
				"weight"	"500"
				"range"		"0x0000 0x017F" //	Basic Latin, Latin-1 Supplement, Latin Extended-A
				"TextColor"	"Black"
				"antialias" 	"1"
			}
		}

		TFFontSmall
		{
			"1"
			{
				"name"		"Verdana"
				"tall"		"7"
				"tall_hidef"	"10"
				"tall_lodef"	"12"
				"weight"	"0"
				"additive"	"1"
				"antialias" 	"1"
			}
		}		
		TFFontMedium
		{
			"1"
			{
				"name"		"Verdana"
				"tall"		"9"
				"tall_hidef"	"10"
				"tall_lodef"	"16"
				"weight"	"400"
				"additive"	"0"
				"antialias" 	"1"
			}
		}		
		MatchmakingDialogTitle
		{
			"1"
			{
				"name"		"TF2 Build"
				"tall"		"36"
				"tall_lodef"		"28"
				"weight"	"500"
				"antialias"	"1"
			}
		}
		MatchmakingDialogSessionOptionsTitle
		{
			"1"
			{
				"name"		"TF2 Build"
				"tall"		"30"
				"tall_lodef"		"22"
				"weight"	"500"
				"antialias"	"1"
			}
		}
		MatchmakingDialogMenuLarge
		{
			"1"
			{
				"name"		"TF2 Secondary"
				"tall"		"28"
				"tall_lodef"	"24"
				"weight"	"500"
				"antialias"	"1"
			}
		}
		MatchmakingDialogMenuServerBrowser
		{
			"1"
			{
				"name"		"TF2 Secondary"
				"tall"		"15"
				"tall_lodef"	"13"
				"weight"	"500"
				"antialias"	"1"
			}
		}
		MatchmakingDialogMenuBrowserHostname
		{
			"1"			// brower item hostname
			{
				"name"		"Trebuchet MS"
				"tall"		"22"
				"weight"	"900"
				"antialias"	"1"
			}
		}
		MatchmakingDialogMenuBrowserDetails
		{
			"1"			// browser item players and map name
			{
				"name"		"Trebuchet MS"
				"tall"		"18"
				"weight"	"900"
				"antialias"	"1"
			}
		}		
		MatchmakingDialogMenuMedium
		{
			"1"
			{
				"name"		"TF2 Secondary"
				"tall"		"22"
				"weight"	"500"
				"antialias"	"1"
			}
		}
		MatchmakingDialogMenuMediumSmall
		{
			"1"
			{
				"name"		"TF2 Secondary"
				"tall"		"18"
				"weight"	"500"
				"antialias"	"1"
			}
		}
		MatchmakingDialogMenuSmall
		{
			"1"
			{
				"name"		"Verdana"
				"tall"		"22"
				"tall_lodef"		"18"
				"weight"	"900"
				"antialias"	"1"
			}
		}
		MatchmakingDialogMenuSmallest
		{
			"1"
			{
				"name"		"Verdana"
				"tall"		"18"
				"tall_lodef"		"18"
				"weight"	"900"
				"antialias"	"1"
			}
		}
		RankingDialogHeaders
		{
			"1"
			{
				"name"		"Verdana"
				"tall"		"15"
				"weight"	"900"
				"antialias"	"1"
			}
		}
		
		"TeamMenuBold"
		{
			"1"
			{
				"name"		"TF2 Build"
				"tall"		"36"
				"weight"	"500"
				"additive"	"0"
				"antialias" "1"
			}
		}
		"TeamMenu"
		{
			"1"
			{
				"name"		"TF2 Secondary"
				"tall"		"11"
				"weight"	"600"
				"additive"	"0"
				"antialias" 	"1"
			}
		}		
		"IntroMenuCaption"
		{
			"1"
			{
				"name"		"TF2 Secondary"
				"tall"		"18"
				"weight"	"400"
				"additive"	"0"
				"antialias" 	"1"
			}
		}			
		"AchievementNotification"
		{
			"1"
			{
				"name"		"Trebuchet MS"
				"tall"		"14"
				"weight"	"900"
				"antialias" "1"
			}
		}
	}

	//
	//////////////////// BORDERS //////////////////////////////
	//
	// describes all the border types
	Borders
	{
		NoBorder
		{
			"inset" "0 0 0 0"
			Left
			{
				"1"
				{
					"color" "Blank"
					"offset" "0 0"
				}
			}

			Right
			{
				"1"
				{
					"color" "Blank"
					"offset" "0 0"
				}
			}

			Top
			{
				"1"
				{
					"color" "Blank"
					"offset" "0 0"
				}
			}

			Bottom
			{
				"1"
				{
					"color" "Blank"
					"offset" "0 0"
				}
			}
		}
		
		TeamMenuBorder
		{
			"inset" "0 0 0 0"
			Left
			{
				"1"
				{
					"color" "Black"
					"offset" "0 0"
				}
				"2"
				{
					"color" "Black"
					"offset" "0 0"
				}
			}

			Right
			{
				"1"
				{
					"color" "Black"
					"offset" "0 0"
				}
				"2"
				{
					"color" "Black"
					"offset" "0 0"
				}
			}

			Top
			{
				"1"
				{
					"color" "Black"
					"offset" "0 0"
				}
				"2"
				{
					"color" "Black"
					"offset" "0 0"
				}
			}

			Bottom
			{
				"1"
				{
					"color" "Black"
					"offset" "0 0"
				}
				"2"
				{
					"color" "Black"
					"offset" "0 0"
				}
			}
		}
		
		ScrollBarButtonBorder
		{
			"inset" "1 0 0 0"
			Left
			{
				"1"
				{
					"color" "Border.Bright"
					"offset" "0 1"
				}
			}

			Right
			{
				"1"
				{
					"color" "Border.Dark"
					"offset" "1 0"
				}
			}

			Top
			{
				"1"
				{
					"color" "Border.Bright"
					"offset" "0 0"
				}
			}

			Bottom
			{
				"1"
				{
					"color" "Border.Dark"
					"offset" "0 0"
				}
			}
		}

		ScrollBarButtonDepressedBorder
		{
			"inset" "2 2 0 0"
			Left
			{
				"1"
				{
					"color" "Border.Dark"
					"offset" "0 1"
				}
			}

			Right
			{
				"1"
				{
					"color" "Border.Bright"
					"offset" "1 0"
				}
			}

			Top
			{
				"1"
				{
					"color" "Border.Dark"
					"offset" "0 0"
				}
			}

			Bottom
			{
				"1"
				{
					"color" "Border.Bright"
					"offset" "0 0"
				}
			}
		}

		ButtonBorder
		{
			"inset" "0 0 0 0"
			"backgroundtype" "2"
		}

		// this is the border used for default buttons (the button that gets pressed when you hit enter)
		ButtonKeyFocusBorder
		{
			"inset" "0 0 0 0"
			"backgroundtype" "2"
		}

		ButtonDepressedBorder
		{
			"inset" "0 0 0 0"
			"backgroundtype" "2"
		}
		
		OutlinedGreyBox
		{
			"bordertype"			"scalable_image"
			"backgroundtype"		"2"
			
			"image"					"loadout_round_rect_selected"
			"src_corner_height"		"24"				// pixels inside the image
			"src_corner_width"		"24"
			"draw_corner_width"		"11"				// screen size of the corners ( and sides ), proportional
			"draw_corner_height" 	"11"	
		}
		OutlinedDullGreyBox
		{
			"bordertype"			"scalable_image"
			"backgroundtype"		"2"
			
			"image"					"loadout_round_rect"
			"src_corner_height"		"24"				// pixels inside the image
			"src_corner_width"		"24"
			"draw_corner_width"		"11"				// screen size of the corners ( and sides ), proportional
			"draw_corner_height" 	"11"	
		}
		
		TFThinLineBorder
		{
			"bordertype"			"scalable_image"
			"backgroundtype"		"2"
			
			"image"					"../hud/tournament_panel_brown"
			//"image"					"../hud/color_panel_browner"
			"src_corner_height"		"23"				// pixels inside the image
			"src_corner_width"		"23"
			"draw_corner_width"		"8"				// screen size of the corners ( and sides ), proportional
			"draw_corner_height" 	"8"	
		}
		TFFatLineBorderOpaque
		{
			"bordertype"			"scalable_image"
			"backgroundtype"		"2"
			
			"image"					"../hud/color_panel_brown_opaque"
			"src_corner_height"		"23"				// pixels inside the image
			"src_corner_width"		"23"
			"draw_corner_width"		"5"				// screen size of the corners ( and sides ), proportional
			"draw_corner_height" 	"5"	
		}
		TFFatLineBorder
		{
			"bordertype"			"scalable_image"
			"backgroundtype"		"2"
			
			"image"					"../hud/color_panel_brown"
			"src_corner_height"		"23"				// pixels inside the image
			"src_corner_width"		"23"
			"draw_corner_width"		"5"				// screen size of the corners ( and sides ), proportional
			"draw_corner_height" 	"5"	
		}
		TFFatLineBorderRedBGOpaque
		{
			"bordertype"			"scalable_image"
			"backgroundtype"		"2"
			
			"image"					"../hud/color_panel_red_opaque"
			"src_corner_height"		"23"				// pixels inside the image
			"src_corner_width"		"23"
			"draw_corner_width"		"5"				// screen size of the corners ( and sides ), proportional
			"draw_corner_height" 	"5"	
		}
		TFFatLineBorderRedBGOpaque_Store
		{
			"bordertype"			"scalable_image"
			"backgroundtype"		"2"
			
			"image"					"../hud/color_panel_red_opaque"
			"src_corner_height"		"24"				// pixels inside the image
			"src_corner_width"		"24"
			"draw_corner_width"		"11"				// screen size of the corners ( and sides ), proportional
			"draw_corner_height" 	"11"	
		}
		TFFatLineBorderRedBG
		{
			"bordertype"			"scalable_image"
			"backgroundtype"		"2"
			
			"image"					"../hud/color_panel_red"
			"src_corner_height"		"23"				// pixels inside the image
			"src_corner_width"		"23"
			"draw_corner_width"		"5"				// screen size of the corners ( and sides ), proportional
			"draw_corner_height" 	"5"	
		}
		TFFatLineBorderRedBGMoreOpaque
		{
			"bordertype"			"scalable_image"
			"backgroundtype"		"2"
			
			"image"					"../hud/color_panel_red_more_opaque"
			"src_corner_height"		"23"				// pixels inside the image
			"src_corner_width"		"23"
			"draw_corner_width"		"5"				// screen size of the corners ( and sides ), proportional
			"draw_corner_height" 	"5"	
		}
		TFFatLineBorderBlueBG
		{
			"bordertype"			"scalable_image"
			"backgroundtype"		"2"
			
			"image"					"../hud/color_panel_blu"
			"src_corner_height"		"23"				// pixels inside the image
			"src_corner_width"		"23"
			"draw_corner_width"		"5"				// screen size of the corners ( and sides ), proportional
			"draw_corner_height" 	"5"	
		}
		TFFatLineBorderBlueBGMoreOpaque
		{
			"bordertype"			"scalable_image"
			"backgroundtype"		"2"
			
			"image"					"../hud/color_panel_blu_more_opaque"
			"src_corner_height"		"23"				// pixels inside the image
			"src_corner_width"		"23"
			"draw_corner_width"		"5"				// screen size of the corners ( and sides ), proportional
			"draw_corner_height" 	"5"	
		}
		TFFatLineBorderBlueBGOpaque
		{
			"bordertype"			"scalable_image"
			"backgroundtype"		"2"
			
			"image"					"../hud/color_panel_blu_opaque"
			"src_corner_height"		"23"				// pixels inside the image
			"src_corner_width"		"23"
			"draw_corner_width"		"5"				// screen size of the corners ( and sides ), proportional
			"draw_corner_height" 	"5"	
		}
		TFFatLineBorderClearBG
		{
			"bordertype"			"scalable_image"
			"backgroundtype"		"2"
			
			"image"					"../hud/color_panel_clear"
			"src_corner_height"		"23"				// pixels inside the image
			"src_corner_width"		"23"
			"draw_corner_width"		"5"				// screen size of the corners ( and sides ), proportional
			"draw_corner_height" 	"5"	
		}

		ToolTipBorder
		{
			"inset" "0 0 1 1"
			Left
			{
				"1"
				{
					"color" "TanDarker"
					"offset" "0 1"
				}
			}

			Right
			{
				"1"
				{
					"color" "TanDarker"
					"offset" "1 0"
				}
			}

			Top
			{
				"1"
				{
					"color" "TanDarker"
					"offset" "0 0"
				}
			}

			Bottom
			{
				"1"
				{
					"color" "TanDarker"
					"offset" "0 0"
				}
			}
		}
		OptionsCategoryBorder
		{
			"inset" "0 0 1 1"
			
			// This border is used just to create a horizontal line, so it only has a bottom border
			
			Bottom
			{
				"1"
				{
					"color" "TanLight"
					"offset" "0 0"
				}
			}
		}
		
		GrayDialogBorder
		{
			"bordertype"			"scalable_image"
			"backgroundtype"		"2"
			
			"image"					"loadout_rect"
			"src_corner_height"		"24"				// pixels inside the image
			"src_corner_width"		"24"
			"draw_corner_width"		"11"				// screen size of the corners ( and sides ), proportional
			"draw_corner_height" 	"11"	
		}

		ComboBoxBorder
		{
			"inset" "0 0 1 1"
			Left
			{
				"1"
				{
					"color" "Border.Dark"
					"offset" "0 1"
				}
			}

			Right
			{
				"1"
				{
					"color" "Border.Dark"
					"offset" "1 0"
				}
			}

			Top
			{
				"1"
				{
					"color" "Border.Dark"
					"offset" "0 0"
				}
			}

			Bottom
			{
				"1"
				{
					"color" "Border.Dark"
					"offset" "0 0"
				}
			}
		}
	}

	//////////////////////// CUSTOM FONT FILES /////////////////////////////
	//
	// specifies all the custom (non-system) font files that need to be loaded to service the above described fonts
	CustomFontFiles
	{
		"1"		"resource/tf.ttf"
		"2"		"resource/tfd.ttf"
		"3"		"resource/TF2.ttf"
		"4"		"resource/TF2Secondary.ttf"
		"5"		"resource/TF2Professor.ttf"
		"6"		"resource/TF2Build.ttf"
	}

}
