// Choreo version 1
actor "civilian"
{
  channel "audio"
  {
    event speak "Civilian.CloakedSpyIdentify10"
    {
      time 0.000000 2.060771
      param "Civilian.CloakedSpyIdentify10"
      fixedlength
      cctype "cc_master"
      cctoken ""
    }
  }
  channel "emotion"
  {
    event expression "madUpper"
    {
      time 0.000000 2.227438
      param "player\civilian\emotion\emotion"
      param2 "madUpper"
      event_ramp
      {
        0.2500 0.8057 "curve_easein_to_curve_easeout"
        1.8396 0.8057 "curve_easein_to_curve_easeout"
      }
    }
  }
}

scalesettings
{
  "CChoreoView" "64"
  "ExpressionTool" "100"
  "RampTool" "66"
  "GestureTool" "100"
  "SceneRampTool" "100"
}
fps 60
snap off
ignorePhonemes off
