// Choreo version 1
actor "civilian"
{
  channel "audio"
  {
    event speak "Civilian.Jeers05"
    {
      time 0.000000 2.054966
      param "Civilian.Jeers05"
      fixedlength
      cctype "cc_master"
      cctoken ""
    }
  }
  channel "emotion"
  {
    event expression "madUpper"
    {
      time 0.000000 2.138299
      param "player\civilian\emotion\emotion"
      param2 "madUpper"
      event_ramp
      {
        0.2924 0.5571 "curve_easein_to_curve_easeout"
        1.8747 0.5543 "curve_easein_to_curve_easeout"
      }
    }
  }
}

scalesettings
{
  "CChoreoView" "64"
  "ExpressionTool" "100"
  "RampTool" "66"
  "GestureTool" "100"
  "SceneRampTool" "100"
}
fps 60
snap off
ignorePhonemes off
