// Choreo version 1
actor "civilian"
{
  channel "audio"
  {
    event speak "Civilian.NeedSentry01"
    {
      time 0.000000 1.422222
      param "Civilian.NeedSentry01"
      fixedlength
      cctype "cc_master"
      cctoken ""
    }
  }
  channel "emotion"
  {
    event expression "madUpper"
    {
      time 0.000000 1.568055
      param "player\civilian\emotion\emotion"
      param2 "madUpper"
      event_ramp
      {
        0.2258 0.4571 "curve_catmullrom_normalize_x_to_curve_catmullrom_normalize_x"
        1.3044 0.6200 "curve_easein_to_curve_easeout"
      }
    }
  }
}

scalesettings
{
  "CChoreoView" "64"
  "ExpressionTool" "100"
  "RampTool" "66"
  "GestureTool" "100"
  "SceneRampTool" "100"
}
fps 60
snap off
ignorePhonemes off
