// Choreo version 1
actor "civilian"
{
  channel "audio"
  {
    event speak "Civilian.PainSharp08"
    {
      time 0.000000 0.640726
      param "Civilian.PainSharp08"
      fixedlength
      cctype "cc_master"
      cctoken ""
    }
  }
  channel "emotion"
  {
    event expression "painSmallUpper"
    {
      time 0.000000 0.890726
      param "player\civilian\emotion\emotion"
      param2 "painSmallUpper"
      event_ramp
      {
        0.2470 0.9543 "curve_easein_to_curve_easeout"
        0.6847 0.7286 "curve_catmullrom_normalize_x_to_curve_catmullrom_normalize_x"
      }
    }
  }
}

scalesettings
{
  "CChoreoView" "64"
  "ExpressionTool" "100"
  "RampTool" "66"
  "GestureTool" "100"
  "SceneRampTool" "100"
}
fps 60
snap off
ignorePhonemes off
