// Choreo version 1
actor "civilian"
{
  channel "audio"
  {
    event speak "Civilian.PainSharp03"
    {
      time 0.000000 0.368617
      param "Civilian.PainSharp03"
      fixedlength
      cctype "cc_master"
      cctoken ""
    }
  }
  channel "emotion"
  {
    event expression "painSmallUpper"
    {
      time 0.000000 0.462367
      param "player\civilian\emotion\emotion"
      param2 "painSmallUpper"
      event_ramp
      {
        0.1186 1.0000 "curve_easein_to_curve_easeout"
        0.3271 1.0000 "curve_easein_to_curve_easeout"
      }
    }
  }
}

scalesettings
{
  "CChoreoView" "64"
  "ExpressionTool" "100"
  "RampTool" "66"
  "GestureTool" "100"
  "SceneRampTool" "100"
}
fps 60
snap off
ignorePhonemes off
