// Choreo version 1
actor "civilian"
{
  channel "audio"
  {
    event speak "Civilian.SentryAhead02"
    {
      time 0.000000 1.486077
      param "Civilian.SentryAhead02"
      fixedlength
      cctype "cc_master"
      cctoken ""
    }
  }
  channel "emotion"
  {
    event expression "madUpper"
    {
      time 0.000000 1.558994
      param "player\civilian\emotion\emotion"
      param2 "madUpper"
      event_ramp
      {
        0.2076 0.7457 "curve_easein_to_curve_easeout"
        0.5879 0.5057
        0.7970 0.8343 "curve_easein_to_curve_easeout"
        1.2620 0.8343 "curve_easein_to_curve_easeout"
      }
    }
  }
}

scalesettings
{
  "CChoreoView" "64"
  "ExpressionTool" "100"
  "RampTool" "66"
  "GestureTool" "100"
  "SceneRampTool" "100"
}
fps 60
snap off
ignorePhonemes off
