// Choreo version 1
actor "civilian"
{
  channel "audio"
  {
    event speak "Civilian.SpecialCompleted04"
    {
      time 0.604167 2.339858
      param "Civilian.SpecialCompleted04"
      fixedlength
      cctype "cc_master"
      cctoken ""
    }
    event sequence "taunt02_v1"
    {
      time 0.000000 4.300000
      param "taunt02"
      fixedlength
    }
  }
  channel "emotion"
  {
    event expression "madUpper"
    {
      time 0.604167 2.527359
      param "player\civilian\emotion\emotion"
      param2 "madUpper"
      event_ramp
      {
        0.2500 0.7857 "curve_easein_to_curve_easeout"
        1.6686 0.7771 "curve_easein_to_curve_easeout"
      }
    }
  }
}

scalesettings
{
  "CChoreoView" "64"
  "ExpressionTool" "100"
  "RampTool" "66"
  "GestureTool" "100"
  "SceneRampTool" "100"
}
fps 60
snap off
ignorePhonemes off
