// Choreo version 1
actor "civilian"
{
  channel "audio"
  {
    event speak "Civilian.SpecialCompleted01"
    {
      time 1.468750 2.368523
      param "Civilian.SpecialCompleted01"
      fixedlength
      cctype "cc_master"
      cctoken ""
    }
    event sequence "taunt01_v3"
    {
      time 0.000000 2.800000
      param "taunt01"
      fixedlength
    }
  }
  channel "emotion"
  {
    event expression "madUpper"
    {
      time 1.479167 2.472690
      param "player\civilian\emotion\emotion"
      param2 "madUpper"
      event_ramp
      {
        0.2561 0.5686 "curve_catmullrom_normalize_x_to_curve_catmullrom_normalize_x"
        0.8190 0.6914 "curve_easein_to_curve_easeout"
      }
    }
  }
}

scalesettings
{
  "CChoreoView" "64"
  "ExpressionTool" "100"
  "RampTool" "66"
  "GestureTool" "100"
  "SceneRampTool" "100"
}
fps 60
snap off
ignorePhonemes off
