// Choreo version 1
actor "civilian"
{
  channel "audio"
  {
    event speak "Civilian.Taunts01"
    {
      time 0.000000 1.015873
      param "Civilian.Taunts01"
      fixedlength
      cctype "cc_master"
      cctoken ""
    }
  }
  channel "emotion"
  {
    event expression "madUpper"
    {
      time 0.000000 1.140873
      param "player\civilian\emotion\emotion"
      param2 "madUpper"
      event_ramp
      {
        0.3076 0.7086 "curve_catmullrom_normalize_x_to_curve_catmullrom_normalize_x"
        0.8500 1.0000 "curve_easein_to_curve_easeout"
      }
    }
  }
}

scalesettings
{
  "CChoreoView" "64"
  "ExpressionTool" "100"
  "RampTool" "66"
  "GestureTool" "100"
  "SceneRampTool" "100"
}
fps 60
snap off
ignorePhonemes off
