// Choreo version 1
actor "civilian"
{
  channel "audio"
  {
    event speak "Civilian.PainCrticialDeath01"
    {
      time 0.000000 2.229116
      param "Civilian.PainCrticialDeath01"
      fixedlength
      cctype "cc_master"
      cctoken ""
    }
    event sequence "taunt03_v1"
    {
      time 0.000000 3.966667
      param "taunt03"
      fixedlength
    }
  }
  channel "emotion"
  {
    event expression "painBigUpper"
    {
      time 0.000000 2.239533
      param "player\civilian\emotion\emotion"
      param2 "painBigUpper"
      event_ramp
      {
        0.2106 0.9829 "curve_easein_to_curve_easeout"
        1.9820 0.9143 "curve_easein_to_curve_easeout"
      }
    }
  }
}

scalesettings
{
  "CChoreoView" "64"
  "ExpressionTool" "100"
  "RampTool" "66"
  "GestureTool" "100"
  "SceneRampTool" "100"
}
fps 60
snap off
ignorePhonemes off
