// Choreo version 1
actor "civilian"
{
  channel "audio"
  {
    event speak "Civilian.Taunts04"
    {
      time 0.000000 3.471383
      param "Civilian.Taunts04"
      fixedlength
      cctype "cc_master"
      cctoken ""
    }
  }
  channel "emotion"
  {
    event expression "madUpper"
    {
      time 0.000000 3.721383
      param "player\civilian\emotion\emotion"
      param2 "madUpper"
      event_ramp
      {
        0.2321 0.5514 "curve_easein_to_curve_easeout"
        0.7107 0.6143 "curve_catmullrom_normalize_x_to_curve_catmullrom_normalize_x"
        1.0019 0.8657 "curve_catmullrom_normalize_x_to_curve_catmullrom_normalize_x"
        1.4371 0.5200 "curve_easein_to_curve_easeout"
        2.7869 0.5457 "curve_easein_to_curve_easeout"
        3.0159 0.8314 "curve_catmullrom_normalize_x_to_curve_catmullrom_normalize_x"
        3.2964 0.6886 "curve_catmullrom_normalize_x_to_curve_catmullrom_normalize_x"
      }
    }
  }
}

scalesettings
{
  "CChoreoView" "64"
  "ExpressionTool" "100"
  "RampTool" "56"
  "GestureTool" "100"
  "SceneRampTool" "100"
}
fps 60
snap off
ignorePhonemes off
