// Choreo version 1


actor "Spy"
{
  channel "sequence"
  {
    event sequence "idle"
    {
      time 0 23.0416
      param "competitive_winnerstate_idle"
    }
  }
}

fps 60
snap off
ignorePhonemes off
