"LightmappedGeneric"
{
	"$basetexture" "Concrete/computerwall003c_grn"
	"%keywords" "tf"
	"$detail" "overlays/detail001"
	"$detailscale" "1.9"
	"$detailblendmode" "0"
	"$detailblendfactor" "1"

	"360?$color2" "[ 0.78 0.8 0.8 ]"
}