"Resource/UI/HudLungeMeter.res"
{
	"BackGround"
	{
		"ControlName"	"CTFImagePanel"
		"fieldName"		"BackGround"
		"xpos"			"12"
		"ypos"			"6"
		"zpos"			"0"
		"wide"			"100"
		"tall"			"50"
		"visible"		"1"
		"visible_minmode"	"0"
		"enabled"		"1"
		"image"			"../hud/misc_ammo_area_horiz1_blue"
		"scaleImage"	"1"
		"teambg_1"		"../hud/misc_ammo_area_horiz1_black"
		"teambg_2"		"../hud/misc_ammo_area_horiz1_red"
		"teambg_3"		"../hud/misc_ammo_area_horiz1_blue"
		"teambg_4"		"../hud/misc_ammo_area_horiz1_green"
	}
	
	"LungeLabel"
	{
		"ControlName"	"CExLabel"
		"fieldName"		"LungeLabel"
		"xpos"					"42"
		"ypos"					"30"
		"zpos"					"2"
		"wide"					"41"
		"tall"					"15"
		"autoResize"			"1"
		"pinCorner"				"2"
		"visible"				"1"
		"visible_minmode"		"1"
		"ypos_minmode"			"0"
		"xpos_minmode"			"0"
		"textAlignment_minmode"			"west"
		"enabled"				"1"
		"tabPosition"			"0"
		"labelText"				"#TF_Lunge"
		"textAlignment"			"center"
		"dulltext"				"0"
		"brighttext"			"0"
		"font"					"TFFontSmall"
	}

	"LungeMeter"
	{	
		"ControlName"	"ContinuousProgressBar"
		"fieldName"		"LungeMeter"
		"font"					"Default"
		"xpos"					"47"
		"ypos"					"28"
		"ypos_minmode"			"0"
		"xpos_minmode"			"0"
		"zpos"					"2"
		"wide"					"30"
		"wide_minmode"			"50"
		"tall"					"5"
		"autoResize"			"0"
		"pinCorner"				"0"
		"visible"				"1"
		"enabled"				"1"
		"textAlignment"			"Left"
		"dulltext"				"0"
		"brighttext"			"0"
	}					
}
