"Resource/UI/TeamMenu.res"
{
	"team"
	{
		"ControlName"	"CTeamMenu"
		"fieldName"		"team"
		"xpos"			"0"
		"ypos"			"0"
		"wide"			"f0"
		"tall"			"480"
		"autoResize"	"0"
		"pinCorner"		"0"
		"visible"		"1"
		"enabled"		"1"
		"tabPosition"	"0"
	}

	"SysMenu"
	{
		"ControlName"	"Menu"
		"fieldName"		"SysMenu"
		"xpos"			"0"
		"ypos"			"0"
		"wide"			"64"
		"tall"			"24"
		"autoResize"	"0"
		"pinCorner"		"0"
		"visible"		"0"
		"enabled"		"0"
		"tabPosition"	"0"
	}

	"MapInfo"
	{
		"ControlName"	"HTML"
		"fieldName"		"MapInfo"
		"xpos"			"100"
		"ypos"			"34"
		"wide"			"450"
		"tall"			"365"
		"autoResize"	"3"
		"pinCorner"		"0"
		"visible"		"0"
		"enabled"		"0"
		"tabPosition"	"0"
	}

	"mapname"
	{
		"ControlName"	"Label"
		"fieldName"		"mapname"
		"xpos"			"c-310"
		"ypos"			"50"
		"wide"			"90"
		"tall"			"24"
		"autoResize"	"0"
		"pinCorner"		"0"
		"visible"		"0"
		"enabled"		"0"
		"labelText"		""
		"textAlignment"	"west"
		"dulltext"		"0"
		"brighttext"	"1"
	}
	
	"teambutton0"
	{
		"ControlName"	"CTFTeamButton"
		"fieldName"		"teambutton0"
		"xpos"			"c-29"
		"ypos"			"101"
		"zpos"			"3"
		"wide"			"124"
		"tall"			"310"
		"autoResize"	"0"
		"pinCorner"		"2"
		"visible"		"1"
		"enabled"		"1"
		"tabPosition"	"3"
		"labelText"		"&3"	[$WIN32]
		"labelText"		""		[$X360]
		"textAlignment"	"south-west"
		"dulltext"		"0"
		"brighttext"	"0"
		"paintborder"	"0"
		"command"		"jointeam blue"
		"team"				"3"		// team blue
		"associated_model"	"bluedoor"
		"hover"				"2.0"
		"font"			"MenuMainTitle"
		"fgcolor"		"255 255 255 255"
	}

	"teambutton1"
	{
		"ControlName"	"CTFTeamButton"
		"fieldName"		"teambutton1"
		"xpos"			"c159"
		"ypos"			"101"
		"zpos"			"3"
		"wide"			"124"
		"tall"			"310"
		"autoResize"	"0"
		"pinCorner"		"2"
		"visible"		"1"
		"enabled"		"1"
		"tabPosition"	"4"
		"labelText"		"&4"	[$WIN32]
		"labelText"		""		[$X360]
		"textAlignment"	"south-west"
		"dulltext"		"0"
		"brighttext"	"0"
		"paintborder"	"0"
		"command"		"jointeam red"
		"team"				"2"		// team red
		"associated_model"	"reddoor"	
		"hover"				"2.0"
		"font"			"MenuMainTitle"
		"fgcolor"		"255 255 255 255"
	}

	"teambutton2"
	{
		"ControlName"	"CTFTeamButton"
		"fieldName"		"teambutton2"
		"xpos"			"c-290"
		"ypos"			"101"
		"zpos"			"3"
		"wide"			"124"
		"tall"			"310"
		"autoResize"	"0"
		"pinCorner"		"2"
		"visible"		"1"
		"enabled"		"1"
		"tabPosition"	"1"
		"labelText"		"&1"	[$WIN32]
		"labelText"		""		[$X360]
		"textAlignment"	"south-west"
		"dulltext"		"0"
		"brighttext"	"0"
		"paintborder"	"0"
		"command"		"jointeam auto"
		"associated_model"	"autodoor"
		"font"			"MenuMainTitle"
		"fgcolor"		"255 255 255 255"
	}
	
	"teambutton3"
	{
		"ControlName"	"CTFTeamButton"
		"fieldName"		"teambutton3"
		"xpos"			"c-140"
		"ypos"			"232"
		"zpos"			"3"
		"wide"			"82"
		"tall"			"57"
		"autoResize"	"0"
		"pinCorner"		"2"
		"visible"		"1"
		"enabled"		"1"
		"tabPosition"	"2"
		"labelText"		"&2"	[$WIN32]
		"labelText"		""		[$X360]
		"textAlignment"	"south-west"
		"dulltext"		"0"
		"brighttext"	"0"
		"paintborder"	"0"
		"command"		"jointeam spectate"
		"associated_model"	"spectate"	
		"font"			"MenuMainTitle"
		"fgcolor"		"255 255 255 255"
	}
	
	"CancelButton" [$WIN32] 
	{
		"ControlName"	"CExButton"
		"fieldName"		"CancelButton"
		"xpos"			"r190"
		"xpos_hidef"			"r200"
		"ypos"			"r40"
		"ypos_lodef"			"r64"
		"ypos_hidef"			"r54"
		"zpos"			"6"
		"wide"			"150"
		"tall"			"30"
		"autoResize"	"0"
		"pinCorner"		"2"
		"visible"		"0"
		"enabled"		"1"
		"tabPosition"	"0"
		"labelText"		"#TF_Cancel"
		"textAlignment"	"center"
		"dulltext"		"0"
		"brighttext"	"0"
		"command"		"cancelmenu"
		"font"			"MenuSmallFont"
	}
	
	"TeamMenuSelect"
	{
		"ControlName"	"CExLabel"
		"fieldName"		"TeamMenuSelect"
		"xpos"			"30"
		"xpos_lodef"			"52"
		"xpos_hidef"			"72"
		"ypos"			"r40"
		"ypos_lodef"			"r60"
		"ypos_hidef"			"r54"
		"zpos"			"6"
		"wide"			"450"
		"tall"			"30"
		"autoResize"	"0"
		"pinCorner"		"0"
		"visible"		"1"
		"visible_lodef"		"0"
		"enabled"		"1"
		"labelText"		"#TF_SelectATeam"
		"textAlignment"	"west"
		"dulltext"		"0"
		"brighttext"	"0"
		"font"			"MenuMainTitle"
		"fgcolor"		"HudOffWhite"
	}
	
	"TeamMenuAuto"
	{
		"ControlName"	"CExLabel"
		"fieldName"		"TeamMenuAuto"
		"xpos"			"c-276"
		"xpos_lodef"			"c-255"
		"xpos_hidef"			"c-260"
		"ypos"			"55"
		"ypos_lodef"			"72"
		"ypos_hidef"			"65"
		"zpos"			"1"
		"wide"			"94"
		"tall"			"24"
		"autoResize"	"0"
		"pinCorner"		"0"
		"visible"		"1"
		"enabled"		"1"
		"labelText"		"#TF_Random"
		"textAlignment"	"center"
		"dulltext"		"0"
		"brighttext"	"0"
		"wrap"			"0"
		"font"			"MenuSmallFont"
		"fgcolor"		"black"
	}
	
	"TeamMenuSpectate"
	{
		"ControlName"	"CExLabel"
		"fieldName"		"TeamMenuSpectate"
		"xpos"			"c-112"
		"xpos_lodef"			"c-125"
		"xpos_hidef"			"c-109"
		"ypos"			"255"
		"ypos_lodef"	"292"
		"zpos"			"1"
		"wide"			"44"
		"wide_lodef"	"70"
		"tall"			"20"
		"autoResize"	"0"
		"pinCorner"		"0"
		"visible"		"1"
		"enabled"		"1"
		"labelText"		"#TF_Spectate"
		"textAlignment"	"north"
		"dulltext"		"0"
		"brighttext"	"0"
		"wrap"			"0"
		"font"			"MenuSmallestFont"
		"font_lodef"	"MenuSmallFont"
		"fgcolor"		"white"
	}

	"MenuBG"
	{
		"ControlName"	"CModelPanel"
		"fieldName"		"MenuBG"
		"xpos"			"0"
		"ypos"			"0"
		"zpos"			"0"		
		"wide"			"f0"
		"tall"			"480"
		"autoResize"	"0"
		"pinCorner"		"0"
		"visible"		"1"
		"enabled"		"1"
		"fov"			"20"
		
		"model"
		{
			"modelname"	"models/vgui/UI_team01.mdl"
			"skin"		"0"
			"angles_x" "0"
			"angles_y" "180"
			"angles_z" "0"
			"origin_x" "290"
			"origin_x_hidef" "305"
			"origin_x_lodef" "320"
			"origin_y" "0"
			"origin_z" "-34"
		}
	}	
	
	"ShadedBar"
	{
		"ControlName"	"ImagePanel"
		"fieldName"		"ShadedBar"
		"xpos"			"0"
		"ypos"			"r50"
		"ypos_lodef"			"r74"
		"ypos_hidef"			"r65"
		"zpos"			"5"
		"wide"			"f0"
		"tall"			"50"
		"tall_lodef"			"74"
		"tall_hidef"			"65"
		"autoResize"	"0"
		"pinCorner"		"0"
		"visible"		"1"
		"enabled"		"1"
		"tabPosition"	"0"	
		"fillcolor"		"0 0 0 180"
		"PaintBackgroundType"	"0"
	}		
	
	"BlueCount"
	{
		"ControlName"	"CExLabel"
		"fieldName"		"BlueCount"
		"xpos"			"c5"
		"xpos_lodef"			"c8"
		"ypos"			"53"
		"ypos_lodef"			"72"
		"ypos_hidef"	"63"
		"zpos"			"1"
		"wide"			"90"
		"tall"			"30"
		"autoResize"	"0"
		"pinCorner"		"0"
		"visible"		"1"
		"enabled"		"1"
		"labelText"		"%bluecount%"
		"textAlignment"	"center"
		"dulltext"		"0"
		"brighttext"	"1"
		"font"			"TeamMenuBold"
		"fgcolor"		"black"
	}		
	
	"RedCount"
	{
		"ControlName"	"CExLabel"
		"fieldName"		"RedCount"
		"xpos"			"c193"
		"xpos_lodef"			"c176"
		"ypos"			"53"
		"ypos_lodef"			"72"
		"ypos_hidef"	"63"
		"zpos"			"1"
		"wide"			"90"
		"tall"			"30"
		"autoResize"	"0"
		"pinCorner"		"0"
		"visible"		"1"
		"enabled"		"1"
		"labelText"		"%redcount%"
		"textAlignment"	"center"
		"dulltext"		"0"
		"brighttext"	"1"
		"font"			"TeamMenuBold"
		"fgcolor"		"black"
	}	
	
	"bluedoor"
	{
		"ControlName"	"CModelPanel"
		"fieldName"		"bluedoor"
		"xpos"			"0"
		"ypos"			"0"
		"zpos"			"2"		
		"wide"			"f0"
		"tall"			"480"
		"autoResize"	"0"
		"pinCorner"		"0"
		"visible"		"1"
		"enabled"		"1"
		"fov"			"20"
		
		"model"
		{
			"modelname"	"models/vgui/UI_team01_blue.mdl"
			"skin"		"0"
			"angles_x" "0"
			"angles_y" "180"
			"angles_z" "0"
			"origin_x" "290"
			"origin_x_lodef" "320"
			"origin_x_hidef" "305"
			"origin_y" "0"
			"origin_z" "-34"
			
			"animation"
			{
				"name"			"idle_enabled"
				"sequence"		"idle"
				"default"		"1"
			}

			"animation"
			{
				"name"			"idle_disabled"
				"sequence"		"fullidle"
			}			
			
			"animation"
			{
				"name"			"enter_enabled"
				"sequence"		"hoveropen"
			}
			
			"animation"
			{
				"name"			"enter_disabled"
				"sequence"		"fullidle"
			}
				
			"animation"
			{
				"name"			"exit_enabled"
				"sequence"		"hoverclose"
			}
			
			"animation"
			{
				"name"			"exit_disabled"
				"sequence"		"fullidle"
			}
			
			"animation"
			{
				"name"			"hover_disabled"
				"sequence"		"fullhover"
			}
		}
	}	
	
	"reddoor"
	{
		"ControlName"	"CModelPanel"
		"fieldName"		"reddoor"
		"xpos"			"0"
		"ypos"			"0"
		"zpos"			"2"		
		"wide"			"f0"
		"tall"			"480"
		"autoResize"	"0"
		"pinCorner"		"0"
		"visible"		"1"
		"enabled"		"1"
		"fov"			"20"
		
		"model"
		{
			"modelname"	"models/vgui/UI_team01_red.mdl"
			"skin"		"0"
			"angles_x" "0"
			"angles_y" "180"
			"angles_z" "0"
			"origin_x" "290"
			"origin_x_lodef" "320"
			"origin_x_hidef" "305"
			"origin_y" "0"
			"origin_z" "-34"
			
			"animation"
			{
				"name"			"idle_enabled"
				"sequence"		"idle"
				"default"		"1"
			}

			"animation"
			{
				"name"			"idle_disabled"
				"sequence"		"fullidle"
			}			
			
			"animation"
			{
				"name"			"enter_enabled"
				"sequence"		"hoveropen"
			}
			
			"animation"
			{
				"name"			"enter_disabled"
				"sequence"		"fullidle"
			}
				
			"animation"
			{
				"name"			"exit_enabled"
				"sequence"		"hoverclose"
			}
			
			"animation"
			{
				"name"			"exit_disabled"
				"sequence"		"fullidle"
			}
			
			"animation"
			{
				"name"			"hover_disabled"
				"sequence"		"fullhover"
			}
		}
	}		
	
	"autodoor"
	{
		"ControlName"	"CModelPanel"
		"fieldName"		"autodoor"
		"xpos"			"0"
		"ypos"			"0"
		"zpos"			"2"		
		"wide"			"f0"
		"tall"			"480"
		"autoResize"	"0"
		"pinCorner"		"0"
		"visible"		"1"
		"enabled"		"1"
		"fov"			"20"
		
		"model"
		{
			"modelname"	"models/vgui/UI_team01_random.mdl"
			"skin"		"0"
			"angles_x" "0"
			"angles_y" "180"
			"angles_z" "0"
			"origin_x" "290"
			"origin_x_lodef" "320"
			"origin_x_hidef" "305"
			"origin_y" "0"
			"origin_z" "-34"
			
			"animation"
			{
				"name"			"idle_enabled"
				"sequence"		"idle"
				"default"		"1"
			}

			"animation"
			{
				"name"			"enter_enabled"
				"sequence"		"hoveropen"
			}
			
			"animation"
			{
				"name"			"exit_enabled"
				"sequence"		"hoverclose"
			}
		}
	}		
	
	"spectate"
	{
		"ControlName"	"CModelPanel"
		"fieldName"		"spectate"
		"xpos"			"0"
		"ypos"			"0"
		"zpos"			"0"		
		"wide"			"f0"
		"tall"			"480"
		"autoResize"	"0"
		"pinCorner"		"0"
		"visible"		"1"
		"enabled"		"1"
		"fov"			"20"
		
		"model"
		{
			"modelname"	"models/vgui/UI_team01_spectate.mdl"
			"skin"		"0"
			"angles_x" "0"
			"angles_y" "180"
			"angles_z" "0"
			"origin_x" "290"
			"origin_x_lodef" "320"
			"origin_x_hidef" "305"
			"origin_y" "0"
			"origin_z" "-34"
			
			"animation"
			{
				"name"			"idle_enabled"
				"sequence"		"idle"
				"default"		"1"
			}

			"animation"
			{
				"name"			"enter_enabled"
				"sequence"		"hover"
			}
			
			"animation"
			{
				"name"			"exit_enabled"
				"sequence"		"hoveroff"
			}
		}
	}
	
	"Footer" [$X360]
	{
		"ControlName"		"CTFFooter"
		"fieldName"			"Footer"
		"zpos"				"6"
		"tall"				"80"
		"button_separator"	"10"
		"button_separator_lodef"	"5"
		"buttongap"			"50"
		"buttongap_hidef"		"35"
		"buttongap_lodef"			"18"
		"textadjust"		"3"
		"textadjust_lodef"		"0"
		"buttonoffsety"		"20"
		"buttonoffsety_hidef"		"0"
		"buttonoffsety_lodef"		"18"
		"center"			"0"
		"button_pin_right_lodef"	"55"
		"fonttext"			"MatchmakingDialogMenuLarge"
		"fonttext_lodef"			"MatchmakingDialogMenuSmall"
		"fgcolor"			"HudOffWhite" 	
		
		"button"
		{
			"name"		"cancel"
			"text"		"#GameUI_Cancel"
			"icon"		"#GameUI_Icons_B_BUTTON"	
		}
		
		"button"
		{
			"name"		"nextprev"
			"text"		"#TF_NextPrev"
			"icon"		"#GameUI_Icons_DPAD"	
		}
		
		"button"
		{
			"name"		"select"
			"text"		"#GameUI_Select"
			"icon"		"#GameUI_Icons_A_BUTTON"	
		}
	}	
}

