"Resource/UI/WinPanelDM.res"
{
	"WinPanelBG"
	{
		"ControlName"		"ImagePanel"
		"fieldName"		"WinPanelBG"
		"xpos"			"c-425"
		"ypos"			"0"
		"zpos"			"-1"
		"wide"			"850"
		"tall"			"500"
		"visible"		"1"
		"enabled"		"1"
		"scaleImage"		"1"	
	}
	"WinningTeamLabel"
	{	
		"ControlName"		"CExLabel"
		"fieldName"		"WinningTeamLabel"
		"font"			"ScoreboardTeamName"
		"xpos"			"0"
		"ypos"			"72"
		"zpos"			"1"
		"wide"			"292"
		"tall"			"24"
		"autoResize"		"0"
		"pinCorner"		"0"
		"visible"		"1"
		"enabled"		"1"
		"labelText"		"%WinningTeamLabel%"
		"textAlignment"		"Center"
		"dulltext"		"0"
		"brighttext"		"0"
	}
	"WinningTeamLabelDropshadow"
	{	
		"ControlName"		"CExLabel"
		"fieldName"		"WinningTeamLabelDropshadow"
		"font"			"ScoreboardTeamName"
		"fgcolor"		"black"
		"xpos"			"1"
		"ypos"			"73"
		"zpos"			"1"
		"wide"			"292"
		"tall"			"24"
		"autoResize"		"0"
		"pinCorner"		"0"
		"visible"		"1"
		"enabled"		"1"
		"labelText"		"%WinningTeamLabel%"
		"textAlignment"		"Center"
		"dulltext"		"0"
		"brighttext"		"0"
	}
	"AdvancingTeamLabel"
	{	
		"ControlName"		"CExLabel"
		"fieldName"		"AdvancingTeamLabel"
		"font"			"HudFontMediumBold"
		"xpos"			"0"
		"ypos"			"72"
		"zpos"			"1"
		"wide"			"292"
		"tall"			"20"
		"autoResize"		"0"
		"pinCorner"		"0"
		"visible"		"1"
		"enabled"		"1"
		"labelText"		"%AdvancingTeamLabel%"
		"textAlignment"		"Center"
		"dulltext"		"0"
		"brighttext"		"0"
	}
	"AdvancingTeamLabelDropshadow"
	{	
		"ControlName"		"CExLabel"
		"fieldName"		"AdvancingTeamLabelDropshadow"
		"font"			"HudFontMediumBold"
		"fgcolor"		"black"
		"xpos"			"1"
		"ypos"			"73"
		"zpos"			"1"
		"wide"			"292"
		"tall"			"20"
		"autoResize"		"0"
		"pinCorner"		"0"
		"visible"		"1"
		"enabled"		"1"
		"labelText"		"%AdvancingTeamLabel%"
		"textAlignment"		"Center"
		"dulltext"		"0"
		"brighttext"		"0"
	}
	"WinReasonLabel"
	{	
		"ControlName"		"CExLabel"
		"fieldName"		"WinReasonLabel"
		"font"			"ScoreboardVerySmall"
		"xpos"			"0"
		"ypos"			"89"
		"zpos"			"1"
		"wide"			"292"
		"tall"			"20"
		"autoResize"		"0"
		"pinCorner"		"0"
		"visible"		"1"
		"enabled"		"1"
		"labelText"		"%WinReasonLabel%"
		"textAlignment"		"Center"
		"dulltext"		"0"
		"brighttext"		"0"
	}
	"DetailsLabel"
	{	
		"ControlName"		"CExLabel"
		"fieldName"		"DetailsLabel"
		"font"			"ScoreboardVerySmall"
		"xpos"			"12"
		"ypos"			"101"
		"zpos"			"1"
		"wide"			"268"
		"tall"			"20"
		"autoResize"		"0"
		"pinCorner"		"0"
		"visible"		"1"
		"enabled"		"1"
		"labelText"		"%DetailsLabel%"
		"textAlignment"		"Center"
		"dulltext"		"0"
		"brighttext"		"0"
	}
	"ShadedBarPlayer1"
	{
		"ControlName"		"ImagePanel"
		"fieldName"		"ShadedBarPlayer1"
		"xpos"			"c-88"
		"ypos"			"c34"
		"zpos"			"3"
		"wide"			"176"
		"tall"			"40"
		"autoResize"	"0"
		"pinCorner"		"0"
		"visible"		"1"
		"enabled"		"1"
		"tabPosition"	"0"	
		"fillcolor"		"0 0 0 150"
		"fillcolor_lodef"		"0 0 0 200"
		"PaintBackgroundType"	"0"
	}

	"Player1Avatar"		[$WIN32]
	{
		"ControlName"		"CAvatarImagePanel"
		"fieldName"		"Player1Avatar"
		"xpos"			"14"
		"ypos"			"132"
		"zpos"			"3"
		"wide"			"18"
		"tall"			"18"
		"visible"		"1"
		"enabled"		"1"
		"image"			""
		"scaleImage"		"1"	
		"color_outline"		"52 48 45 255"
	}
	"Player1Name"
	{	
		"ControlName"		"CExLabel"
		"fieldName"		"Player1Name"
		"font"			"HudFontMediumBold"
		"xpos"			"c-88"
		"ypos"			"c34"
		"zpos"			"3"
		"wide"			"176"
		"tall"			"40"
		"autoResize"		"0"
		"pinCorner"		"0"
		"visible"		"1"
		"enabled"		"1"
		"labelText"		""
		"textAlignment"		"center"
		"dulltext"		"0"
		"brighttext"		"0"
		
	}
	"Player1NameDropShadow"
	{	
		"ControlName"		"CExLabel"
		"fieldName"		"Player1NameDropShadow"
		"font"			"HudFontMediumBold"
		"fgcolor"		"Black"
		"xpos"			"c-87"
		"ypos"			"c35"
		"zpos"			"3"
		"wide"			"176"
		"tall"			"40"
		"autoResize"		"0"
		"pinCorner"		"0"
		"visible"		"1"
		"enabled"		"1"
		"labelText"		""
		"textAlignment"		"center"
		"dulltext"		"0"
		"brighttext"		"0"
		
	}
	"Player1Score"
	{	
		"ControlName"		"CExLabel"
		"fieldName"		"Player1Score"
		"xpos"			"240"
		"ypos"			"132"
		"zpos"			"3"
		"wide"			"30"
		"tall"			"20"
		"autoResize"		"0"
		"pinCorner"		"0"
		"visible"		"0"
		"enabled"		"1"
		"labelText"		""
		"textAlignment"		"east"
		"dulltext"		"0"
		"brighttext"		"0"
	}
	"Player1Model"
	{
		"ControlName"	"CModelPanel"
		"fieldName"		"Player1Model"
		"xpos"			"0"
		"ypos"			"0"
		"zpos"			"2"		
		"wide"			"f0"
		"tall"			"480"
		"autoResize"	"0"
		"pinCorner"		"0"
		"visible"		"0"
		"enabled"		"1"
		"fov"			"20"
		"allow_manip"	"1"
		
		"model"
		{
			"modelname"	"models/player/scout.mdl"
			"skin" "4"
			"angles_x" "0"
			"angles_y" "180"
			"angles_z" "0"
			"origin_x" "600"
			"origin_x_lodef" "320"
			"origin_x_hidef" "305"
			"origin_y" "0"
			"origin_z" "-34"
			"spotlight"	"1"			
			"animation"
			{
				"sequence"		"top3"
			}
			
			"attached_model"
			{
				"modelname" "models/weapons/w_models/w_umbrella.mdl"
				"skin"		"-1"
			}
		}
	}		
	"Player2Avatar"		[$WIN32]
	{
		"ControlName"		"CAvatarImagePanel"
		"fieldName"		"Player2Avatar"
		"xpos"			"14"
		"ypos"			"150"
		"zpos"			"3"
		"wide"			"18"
		"tall"			"18"
		"visible"		"1"
		"enabled"		"1"
		"image"			""
		"scaleImage"		"1"	
		"color_outline"		"52 48 45 255"
	}
	"ShadedBarPlayer2"
	{
		"ControlName"		"ImagePanel"
		"fieldName"		"ShadedBarPlayer2"
		"xpos"			"c-225"
		"ypos"			"c84"
		"zpos"			"3"
		"wide"			"176"
		"tall"			"40"
		"autoResize"	"0"
		"pinCorner"		"0"
		"visible"		"1"
		"enabled"		"1"
		"tabPosition"	"0"	
		"fillcolor"		"0 0 0 150"
		"fillcolor_lodef"		"0 0 0 200"
		"PaintBackgroundType"	"0"
	}	
	"Player2Name"
	{	
		"ControlName"		"CExLabel"
		"fieldName"		"Player2Name"
		"font"			"HudFontMediumBold"
		"xpos"			"c-225"
		"ypos"			"c84"
		"zpos"			"3"
		"wide"			"176"
		"tall"			"40"
		"autoResize"		"0"
		"pinCorner"		"0"
		"visible"		"1"
		"enabled"		"1"
		"labelText"		""
		"textAlignment"		"center"
		"dulltext"		"0"
		"brighttext"		"0"
		
	}
	"Player2NameDropShadow"
	{	
		"ControlName"		"CExLabel"
		"fieldName"		"Player2NameDropShadow"
		"font"			"HudFontMediumBold"
		"fgcolor"		"Black"
		"xpos"			"c-224"
		"ypos"			"c85"
		"zpos"			"3"
		"wide"			"176"
		"tall"			"40"
		"autoResize"		"0"
		"pinCorner"		"0"
		"visible"		"1"
		"enabled"		"1"
		"labelText"		""
		"textAlignment"		"center"
		"dulltext"		"0"
		"brighttext"		"0"
		
	}	
	"Player2Score"
	{	
		"ControlName"		"CExLabel"
		"fieldName"		"Player2Score"
		"xpos"			"240"
		"ypos"			"150"
		"zpos"			"3"
		"wide"			"30"
		"tall"			"20"
		"autoResize"		"0"
		"pinCorner"		"0"
		"visible"		"0"
		"enabled"		"1"
		"labelText"		""
		"textAlignment"		"east"
		"dulltext"		"0"
		"brighttext"		"0"
	}
	"Player2Model"
	{
		"ControlName"	"CModelPanel"
		"fieldName"		"Player2Model"
		"xpos"			"0"
		"ypos"			"0"
		"zpos"			"1"		
		"wide"			"f0"
		"tall"			"480"
		"autoResize"	"0"
		"pinCorner"		"0"
		"visible"		"0"
		"enabled"		"1"
		"fov"			"20"
		"allow_manip"	"1"
		
		"model"
		{
			"modelname"	"models/player/scout.mdl"
			"skin" "4"
			"angles_x" "0"
			"angles_y" "180"
			"angles_z" "0"
			"origin_x" "600"
			"origin_x_lodef" "320"
			"origin_x_hidef" "305"
			"origin_y" "40"
			"origin_z" "-45"
			"spotlight"	"1"
			"animation"
			{
				"sequence"		"top3"
			}
			
			"attached_model"
			{
				"modelname" "models/weapons/w_models/w_umbrella.mdl"
				"skin"		"-1"
			}
		}
	}		
	"Player3Avatar"		[$WIN32]
	{
		"ControlName"		"CAvatarImagePanel"
		"fieldName"		"Player3Avatar"
		"xpos"			"14"
		"ypos"			"168"
		"zpos"			"3"
		"wide"			"18"
		"tall"			"18"
		"visible"		"1"
		"enabled"		"1"
		"image"			""
		"scaleImage"		"1"	
		"color_outline"		"52 48 45 255"
	}
	"ShadedBarPlayer3"
	{
		"ControlName"		"ImagePanel"
		"fieldName"		"ShadedBarPlayer3"
		"xpos"			"c49"
		"ypos"			"c114"
		"zpos"			"3"
		"wide"			"176"
		"tall"			"40"
		"autoResize"	"0"
		"pinCorner"		"0"
		"visible"		"1"
		"enabled"		"1"
		"tabPosition"	"0"	
		"fillcolor"		"0 0 0 150"
		"fillcolor_lodef"		"0 0 0 200"
		"PaintBackgroundType"	"0"
	}		
	"Player3Name"
	{	
		"ControlName"		"CExLabel"
		"fieldName"		"Player3Name"
		"font"			"HudFontMediumBold"
		"xpos"			"c49"
		"ypos"			"c114"
		"zpos"			"3"
		"wide"			"176"
		"tall"			"40"
		"autoResize"		"0"
		"pinCorner"		"0"
		"visible"		"1"
		"enabled"		"1"
		"labelText"		""
		"textAlignment"		"center"
		"dulltext"		"0"
		"brighttext"		"0"
		
	}
	"Player3NameDropShadow"
	{	
		"ControlName"		"CExLabel"
		"fieldName"		"Player3NameDropShadow"
		"font"			"HudFontMediumBold"
		"fgcolor"		"Black"
		"xpos"			"c48"
		"ypos"			"c115"
		"zpos"			"3"
		"wide"			"176"
		"tall"			"40"
		"autoResize"		"0"
		"pinCorner"		"0"
		"visible"		"1"
		"enabled"		"1"
		"labelText"		""
		"textAlignment"		"center"
		"dulltext"		"0"
		"brighttext"		"0"
		
	}	
	"Player3Score"
	{	
		"ControlName"		"CExLabel"
		"fieldName"		"Player3Score"
		"xpos"			"240"
		"ypos"			"168"
		"zpos"			"3"
		"wide"			"30"
		"tall"			"20"
		"autoResize"		"0"
		"pinCorner"		"0"
		"visible"		"0"
		"enabled"		"1"
		"labelText"		""
		"textAlignment"		"east"
		"dulltext"		"0"
		"brighttext"		"0"
	}
	"Player3Model"
	{
		"ControlName"	"CModelPanel"
		"fieldName"		"Player3Model"
		"xpos"			"0"
		"ypos"			"0"
		"zpos"			"0"		
		"wide"			"f0"
		"tall"			"480"
		"autoResize"	"0"
		"pinCorner"		"0"
		"visible"		"0"
		"enabled"		"1"
		"fov"			"20"
		"allow_manip"	"1"
		
		"model"
		{
			"modelname"	"models/player/scout.mdl"
			"skin" "4"
			"angles_x" "0"
			"angles_y" "180"
			"angles_z" "0"
			"origin_x" "600"
			"origin_x_lodef" "320"
			"origin_x_hidef" "305"
			"origin_y" "-40"
			"origin_z" "-50"
			"spotlight"	"1"
			"animation"
			{
				"sequence"		"top3"
			}
			
			"attached_model"
			{
				"modelname" "models/weapons/w_models/w_umbrella.mdl"
				"skin"		"-1"
			}
		}
	}		
	"Close" [$WIN32] 
	{
		"ControlName"	"CExButton"
		"fieldName"		"Close"
		"xpos"			"r300"
		"xpos_hidef"			"r200"
		"ypos"			"r35"
		"ypos_lodef"			"r64"
		"ypos_hidef"			"r54"
		"zpos"			"6"
		"wide"			"150"
		"tall"			"30"
		"autoResize"	"0"
		"pinCorner"		"2"
		"visible"		"1"
		"enabled"		"1"
		"tabPosition"	"0"
		"labelText"		"#TF_Close"
		"textAlignment"	"center"
		"dulltext"		"0"
		"brighttext"	"0"
		"command"		"cancelmenu"
		"font"			"MenuSmallFont"
	}	
}
