"LightmappedGeneric"
{
	"$baseTexture" "moon/moon_wallpanels05_blu"
	$basealphaenvmapmask  1
	"$envmapcontrast" "0"
	"$envmap" "cubemaps\cubemap_specular001"
	"$envmaptint" "[ 0 0 0 ]"
	"$surfaceprop"	"metal"
	"$detail" "detail/moon_wallpanels02_detail.vtf"
	"$detailscale" "0.5"
	"$detailblendmode" "0"
	"$detailblendfactor" "0.5"
}

