// Choreo version 1
event loop "end loop"
{
  time 4.979167 -1.000000
  param "2.868000"
  loopcount "-1"
}
actor "Spy"
{
  channel "sequence"
  {
    event sequence "animation"
    {
      time 0.000000 2.666667
      param "selectionMenu_Anim01"
      fixedlength
    }
    event sequence "idle"
    {
      time 2.666700 4.979167
      param "selectionMenu_Idle"
    }
  }
}

fps 60
snap off
ignorePhonemes off
