// Choreo version 1
actor "DemomanTFC"
{
  channel "audio"
  {
    event speak "DemomanTFC.AutoOnFire01"
    {
      time 0.000000 1.677642
      param "DemomanTFC.AutoOnFire01"
      fixedlength
      cctype "cc_master"
      cctoken ""
    }
  }
  channel "emotion"
  {
    event expression "painBigUpper"
    {
      time 0.031250 1.656250
      param "player\Mercenary\emotion\emotion"
      param2 "painBigUpper"
      event_ramp
      {
        0.0879 0.6400 "curve_easein_to_curve_easeout"
        1.4788 0.6457 "curve_easein_to_curve_easeout"
      }
    }
  }
}

scalesettings
{
  "CChoreoView" "64"
  "ExpressionTool" "100"
  "RampTool" "66"
  "GestureTool" "100"
  "SceneRampTool" "100"
}
fps 60
snap off
ignorePhonemes off
