// Choreo version 1
actor "DemomanTFC"
{
  channel "audio"
  {
    event speak "DemomanTFC.AutoCappedIntelligence03"
    {
      time 0.000000 2.223311
      param "DemomanTFC.AutoCappedIntelligence03"
      fixedlength
      cctype "cc_master"
      cctoken ""
    }
  }
  channel "emotion"
  {
    event expression "mad"
    {
      time 1.9733109999999998 5.4733109999999998
      param "player\Mercenary\emotion\emotion"
      param2 "mad"
      event_ramp
      {
        0.5 1.0000 "curve_easein_to_curve_easeout"
        2.75 1.0000 "curve_easein_to_curve_easeout"
      }
    }
    event expression "madUpper"
    {
      time 0.0 2.4733109999999998
      param "player\Mercenary\emotion\emotion"
      param2 "madUpper"
      event_ramp
      {
        0.2500 1.0000 "curve_easein_to_curve_easeout"
        1.9733109999999998 1.0000 "curve_easein_to_curve_easeout"
      }
    }
  }
}

scalesettings
{
  "CChoreoView" "64"
  "ExpressionTool" "100"
  "RampTool" "66"
  "GestureTool" "100"
  "SceneRampTool" "100"
}
fps 60
snap off
