// Choreo version 1
actor "DemomanTFC"
{
  channel "audio"
  {
    event speak "DemomanTFC.Cheers04"
    {
      time 0.000000 2.107211
      param "DemomanTFC.Cheers04"
      fixedlength
      cctype "cc_master"
      cctoken ""
    }
  }
  channel "emotion"
  {
    event expression "happySmallUpper"
    {
      time 0.000000 2.357211
      param "player\Mercenary\emotion\emotion"
      param2 "happySmallUpper"
      event_ramp
      {
        0.2500 1.0000 "curve_easein_to_curve_easeout"
        1.8572 1.0000 "curve_easein_to_curve_easeout"
      }
    }
  }
}

scalesettings
{
  "CChoreoView" "64"
  "ExpressionTool" "100"
  "RampTool" "66"
  "GestureTool" "100"
  "SceneRampTool" "100"
}
fps 60
snap off
ignorePhonemes off
