// Choreo version 1
actor "DemomanTFC"
{
  channel "audio"
  {
    event speak "DemomanTFC.Go02"
    {
      time 0.000000 0.673379
      param "DemomanTFC.Go02"
      fixedlength
      cctype "cc_master"
      cctoken ""
    }
  }
  channel "emotion"
  {
    event expression "madUpper"
    {
      time 0.000000 0.840046
      param "player\Mercenary\emotion\emotion"
      param2 "madUpper"
      event_ramp
      {
        0.1833 0.5600 "curve_catmullrom_normalize_x_to_curve_catmullrom_normalize_x"
        0.5128 0.7257 "curve_easein_to_curve_easeout"
      }
    }
  }
}

scalesettings
{
  "CChoreoView" "64"
  "ExpressionTool" "100"
  "RampTool" "66"
  "GestureTool" "100"
  "SceneRampTool" "100"
}
fps 60
snap off
ignorePhonemes off
