// Choreo version 1
actor "DemomanTFC"
{
  channel "audio"
  {
    event speak "DemomanTFC.Jeers11"
    {
      time 0.000000 4.829751
      param "DemomanTFC.Jeers11"
      fixedlength
      cctype "cc_master"
      cctoken ""
    }
  }
  channel "emotion"
  {
    event expression "madUpper"
    {
      time 0.000000 5.006835
      param "player\Mercenary\emotion\emotion"
      param2 "madUpper"
      event_ramp
      {
        0.2891 0.4657 "curve_easein_to_curve_easeout"
        2.3522 0.4686 "curve_easein_to_curve_easeout"
        2.6891 0.9971 "curve_easein_to_curve_easeout"
        4.5894 1.0000 "curve_easein_to_curve_easeout"
      }
    }
  }
}

scalesettings
{
  "CChoreoView" "64"
  "ExpressionTool" "100"
  "RampTool" "46"
  "GestureTool" "100"
  "SceneRampTool" "100"
}
fps 60
snap off
ignorePhonemes off
