// Choreo version 1
actor "DemomanTFC"
{
  channel "audio"
  {
    event speak "DemomanTFC.Jeers10"
    {
      time 0.000000 2.972154
      param "DemomanTFC.Jeers10"
      fixedlength
      cctype "cc_master"
      cctoken ""
    }
  }
  channel "emotion"
  {
    event expression "madUpper"
    {
      time 0.000000 3.097154
      param "player\Mercenary\emotion\emotion"
      param2 "madUpper"
      event_ramp
      {
        0.3258 0.6000 "curve_easein_to_curve_easeout"
        1.7508 0.5971 "curve_easein_to_curve_easeout"
        2.1447 0.9229
        2.8992 0.7257
      }
    }
  }
}

scalesettings
{
  "CChoreoView" "64"
  "ExpressionTool" "100"
  "RampTool" "66"
  "GestureTool" "100"
  "SceneRampTool" "100"
}
fps 60
snap off
ignorePhonemes off
