// Choreo version 1
actor "DemomanTFC"
{
  channel "audio"
  {
    event speak "DemomanTFC.Jeers03"
    {
      time 0.000000 2.101406
      param "DemomanTFC.Jeers03"
      fixedlength
      cctype "cc_master"
      cctoken ""
    }
  }
  channel "emotion"
  {
    event expression "madUpper"
    {
      time 0.000000 2.257656
      param "player\Mercenary\emotion\emotion"
      param2 "madUpper"
      event_ramp
      {
        0.3015 0.5400 "curve_catmullrom_normalize_x_to_curve_catmullrom_normalize_x"
        1.9425 0.8000 "curve_easein_to_curve_easeout"
      }
    }
  }
}

scalesettings
{
  "CChoreoView" "64"
  "ExpressionTool" "100"
  "RampTool" "66"
  "GestureTool" "100"
  "SceneRampTool" "100"
}
fps 60
snap off
ignorePhonemes off
