// Choreo version 1
actor "DemomanTFC"
{
  channel "audio"
  {
    event speak "DemomanTFC.Yes01"
    {
      time 0.000000 0.682086
      param "DemomanTFC.Yes01"
      fixedlength
      cctype "cc_master"
      cctoken ""
    }
  }
  channel "emotion"
  {
    event expression "madUpper"
    {
      time 0.000000 0.775836
      param "player\Mercenary\emotion\emotion"
      param2 "madUpper"
      event_ramp
      {
        0.2197 0.4771 "curve_catmullrom_normalize_x_to_curve_catmullrom_normalize_x"
        0.5243 0.5686 "curve_easein_to_curve_easeout"
      }
    }
  }
}

scalesettings
{
  "CChoreoView" "64"
  "ExpressionTool" "100"
  "RampTool" "66"
  "GestureTool" "100"
  "SceneRampTool" "100"
}
fps 60
snap off
ignorePhonemes off
